<svg xmlns="http://www.w3.org/2000/svg" width="293.042" height="736.801" viewBox="0 0 293.042 736.801">
  <g id="Group_201" data-name="Group 201" transform="translate(-697.382 -251.537)">
    <g id="Group_171" data-name="Group 171" transform="translate(697.382 283.798)" opacity="0.23">
      <path id="Path_399" data-name="Path 399" d="M961.112,446.051c-1.543-3.425-3.143-6.826-4.845-10.173a132.943,132.943,0,0,0-12.695-20.554c-9.851-12.883-22.8-22.755-38.6-27.045A68.009,68.009,0,0,0,891.367,386a60.415,60.415,0,0,0-6.366-.116,34.285,34.285,0,0,0-.389-3.716c-.627-4.143-3.014-7.183-5.453-10.448l-4.024-5.387c-.926-1.24-1.755-2.687-3.127-3.491a5.136,5.136,0,0,0-1.915-.658A16.308,16.308,0,0,0,868.7,356.6a1.524,1.524,0,0,0-2.064-.542l-1.1.627a16.872,16.872,0,0,0-.031-5.552,16.2,16.2,0,0,0,1.484-4.369c.055-.3-.371-.538-.532-.224-.484.941-.974,1.864-1.482,2.772a1.431,1.431,0,0,0-2.037-.1q-.975.905-1.91,1.819l-.459-3.257a.631.631,0,0,0-.831-.475c.085-1.15.143-2.3.145-3.451,0-.6-.77-1.173-1.317-.755a20.212,20.212,0,0,0-5.188,5.724q-.059-3.255-.12-6.511a.548.548,0,0,0-.822-.456,150.541,150.541,0,0,0,.865-18.3c7.694.8,14.4-5.768,15.673-13.3,1.442-8.526-2.132-18.384-9.448-23.261a15.8,15.8,0,0,0-21.631,4.34,15.982,15.982,0,0,0-2.116,12.154,18.905,18.905,0,0,0,2.49,5.592c1.662,2.787,1.377,5.49,1.144,8.608q-.721,9.627-1.441,19.253c-.191,2.557-.459,5.168-.672,7.79q-.194.5-.39,1.006a16.548,16.548,0,0,1-.324-3.008,1.75,1.75,0,0,0-3.154-.994c-.257-1.184-.554-2.362-.92-3.536a.712.712,0,0,0-1.392.188l-.461,3.447a1.88,1.88,0,0,0-1.233.052l-.652-3.509c-.15-.806-1.339-.568-1.375.186-.062,1.324-.148,2.644-.247,3.962-.287-.628-.576-1.256-.9-1.873a1.419,1.419,0,0,0-1.26-.732c-.079-.2-.14-.4-.223-.591-.283-.674-1.356-.662-1.36.184,0,.594-.031,1.182-.051,1.771-.147.642-.291,1.283-.437,1.925a41.445,41.445,0,0,0-2.084-4.555c-.769-1.444-2.787-.658-2.887.782q-.055.817-.111,1.633l-.791-2.665a.686.686,0,0,0-1.341.181c-.014.234-.026.468-.038.7a1.733,1.733,0,0,0-2.869,1.138q-.109,1.24-.214,2.479l-.484-1.551a.653.653,0,0,0-1.276.174l-.063,3.558c-.459-.416-.932-.819-1.413-1.216-.453-.931-.94-1.85-1.473-2.755a.5.5,0,0,0-.286-.232q-.148-.556-.293-1.112c-.433-1.639-2.657-1.163-2.809.368a1.525,1.525,0,0,0-1.74.7c-.092.159-.152.324-.234.487-.147-.361-.3-.718-.446-1.08a.5.5,0,0,0-.972.267c.218.872.467,1.728.737,2.573a9.167,9.167,0,0,0,1.862,8.288,1.329,1.329,0,0,0,1.639.341c.116.482.24.962.377,1.44a14.305,14.305,0,0,0-4.863-.118c-4.987-6.408-6.677-14.574-7.114-22.581-.244-4.47-.143-8.948.023-13.418.164-4.4.972-9.319-1-13.433-3.722-7.782-14.113-7.608-20.316-3.263-6.226,4.36-11.289,12.451-9.659,20.308a11.163,11.163,0,0,0,8.074,8.516c3.917,1.057,8.1.282,11.909-1,1.568,4.887,3.18,9.76,4.768,14.64,1.506,4.631,2.981,9.329,4.9,13.817-.495.352-.979.728-1.456,1.116-2.192-3.013-4.567-5.921-6.672-8.979a1.43,1.43,0,0,0-2.6,1.1,27.314,27.314,0,0,0,1.2,3.589,4.381,4.381,0,0,0-1.771,4.241,10.659,10.659,0,0,0,.824,2.817c.173.466.877,2.041.485,2.473-.2.217-.627.3-.783.089a1.236,1.236,0,0,0-2.224.291c-.894,2.68,2.615,3.413,4.466,2.409a34.021,34.021,0,0,0-2.406,4.4q-.48,1.072-.9,2.162l-.009-.026a11.9,11.9,0,0,0-1.361-2.383,4.7,4.7,0,0,0,2.034-1.818c.19-.3-.13-.765-.484-.629a5.8,5.8,0,0,1-3.806.138,10.6,10.6,0,0,0-1.733-1.067c-1.4-.686-3.22,1.234-1.8,2.333.1.079.2.149.309.22l-.01.012a11.077,11.077,0,0,1,2.133,1.652,5.6,5.6,0,0,0-1.317.546c-2.367,1.363-3.069,4.008-2.761,6.585.435,3.647,2.047,7.28,3.228,10.762a48.884,48.884,0,0,0-17.57,7.147,75.592,75.592,0,0,0-17.977,16.359,186.912,186.912,0,0,0-14.406,21.11c-4.944,8.114-9.836,16.259-14.764,24.383-4.354,7.178-9.272,15.243-17.537,18.322-2.4.894-1.479,4.624,1.076,3.907,30.6-8.58,64.779-19.521,80.551-49.719a55.357,55.357,0,0,0,5.565-15.345c.176,3.494.368,6.987.636,10.474.618,8.074,1.469,16.135,2.772,24.128a171.835,171.835,0,0,0,5.546,23.42,55.227,55.227,0,0,1,2.752,11.709,86.931,86.931,0,0,1-.045,10.117c-.162,4.8-.077,10.638,2.329,15.06a50.882,50.882,0,0,1-6.793,29.469,47.96,47.96,0,0,1-10.613,12.156c-3.847,3.223-8.054,6.389-10.576,10.835-6.308,11.126,2.213,21.724,9.495,29.723a270.524,270.524,0,0,0,21.568,21.17c-2.24,5.9,1.92,12.716,6.961,16.477,5,3.73,11.1,7.645,17.487,9.713a14.412,14.412,0,0,0-1.843.134c-.889.126-.719,1.407,0,1.637a13.368,13.368,0,0,0,3.542.6,3.51,3.51,0,0,0-1.509.432.916.916,0,0,0-.286,1.249c-.589.138-1.18.284-1.775.411a.649.649,0,0,0-.154,1.174c1.714.751,3.443,1.438,5.185,2.1l-.034.017a3.351,3.351,0,0,0-3.762.277.868.868,0,0,0,.607,1.466c.143,0,.284,0,.425-.006a.709.709,0,0,0,.637.681,11.7,11.7,0,0,1,3.487.7,26.12,26.12,0,0,0-2.827,1.921,4.47,4.47,0,0,0-.935.463,1.029,1.029,0,0,0,.515,1.9,8.286,8.286,0,0,0,2.791-.68c.425.091.849.184,1.274.273l.014.108c-1.026,1.037-2.93,1.359-3.727,2.748a.725.725,0,0,0,.619,1.08c.468-.022.934-.052,1.4-.081-.464.24-.925.5-1.392.787a.63.63,0,0,0,.516,1.135,1.206,1.206,0,0,0,.26.794,2.6,2.6,0,0,0-1.237,1.287.4.4,0,0,0,.281.494c1,.166,1.931-.73,2.694-1.291.234-.173.5-.357.767-.551.136-.059.27-.118.4-.174.078-.032.154-.068.232-.1l.185,1.368a10.194,10.194,0,0,0-2.088,1.09,3.916,3.916,0,0,0-1.75,1.854.4.4,0,0,0,.494.494,3.225,3.225,0,0,0,1.069-.608,3.27,3.27,0,0,0-.491,1.227c-.092.6.426,1.291,1.036,1.149a9.3,9.3,0,0,0-2.53,3.154c-.339.753.441,1.915,1.292,1.292,1.35-.99,2.51-2.208,3.829-3.238.089.663.172,1.324.26,1.987a1.305,1.305,0,0,0-.776.209c-.7.436-1.418.855-2.105,1.313-.707.47-1.489,1.038-1.5,1.96a.964.964,0,0,0,.488.85,2.515,2.515,0,0,0,2.414-.415c.624-.367,1.233-.767,1.844-1.158.091.693.177,1.388.267,2.081a1.119,1.119,0,0,0-1.046.4c-.537.6-1.079,1.2-1.612,1.8-.493.558-1.288,1.285-1.4,2.036a1.075,1.075,0,0,0,1.3,1.3,4.5,4.5,0,0,0,1.918-1.517c.4-.42.794-.845,1.19-1.27.111.873.213,1.746.32,2.62a16.586,16.586,0,0,1-2.058.4,6.208,6.208,0,0,0-2.425.521,1.029,1.029,0,0,0,0,1.76c1.335.8,3.266.37,4.789-.171.052.431.108.863.159,1.295a1.068,1.068,0,0,0-.871.131L828.3,685.22a1.13,1.13,0,0,0,1.14,1.952l1.556-.834q.379,3.325.739,6.655a23.166,23.166,0,0,0-2.045,1.461,25.027,25.027,0,0,0-2.7.745,1.038,1.038,0,0,0,0,1.984,7.76,7.76,0,0,0,5.11-.742c.142,1.335.276,2.67.412,4.005a18.163,18.163,0,0,0-4.787.055,9.81,9.81,0,0,0-4.5,1.253,1.019,1.019,0,0,0,.509,1.881,20.462,20.462,0,0,0,4.61-.5c1.455-.167,2.92-.188,4.371-.393a.245.245,0,0,0,.029-.007q.244,2.439.474,4.879a1.02,1.02,0,0,0-.523-.3c-1.365-.335-3.47-.505-4.525.639a.971.971,0,0,0,.422,1.6,5.292,5.292,0,0,0,1.889.018c.637-.039,1.277-.068,1.915-.053a1.015,1.015,0,0,0,.948-.559c.073.777.136,1.554.206,2.331a11.807,11.807,0,0,0-4.89,1.01c-1.2.616-2.3,2.32-1.014,3.426a.916.916,0,0,0,1.543-.639c-.23.02-.18-.046.153-.193a1.917,1.917,0,0,1,.652-.315,9.722,9.722,0,0,1,1.522-.339c.75-.143,1.505-.259,2.263-.357.069.778.129,1.559.2,2.338a1.237,1.237,0,0,0-.936-.443c-1.521-.063-3.579.278-4.472,1.655a1.066,1.066,0,0,0,.914,1.594,10.486,10.486,0,0,0,1.823-.494,5.081,5.081,0,0,1,1.735-.144,1.092,1.092,0,0,0,1.074-.533q.247,2.95.473,5.9c-2.113.4-4.236.926-5.549,2.766-.471.659.3,1.488,1,1.305,1.638-.427,3.083-1.386,4.715-1.841.046.612.088,1.223.132,1.834a.97.97,0,0,0-.537.025,14.2,14.2,0,0,0-4.578,1.99.993.993,0,0,0,.7,1.68,13.471,13.471,0,0,0,4.576-1.506c.069.985.126,1.972.191,2.959a1.115,1.115,0,0,0-1.227-.376c-1.758.485-3.883,1-5.262,2.255a1,1,0,0,0,.7,1.7c1.764-.149,3.529-1.052,5.215-1.57a1.185,1.185,0,0,0,.668-.486c.08,1.234.151,2.468.225,3.7a20.87,20.87,0,0,0-3.831-.267,10.438,10.438,0,0,0-4.64.688.953.953,0,0,0,.225,1.726,21.141,21.141,0,0,0,4.414.027c1.325-.005,2.651.154,3.972.172.073,1.288.133,2.577.2,3.865a1.134,1.134,0,0,0-.306-.164c-1.7-.578-4.3-1-5.919-.039a.962.962,0,0,0,.227,1.736,8.306,8.306,0,0,0,2.647.3c.918.048,1.824.195,2.738.281a.981.981,0,0,0,.711-.185c.008.155.017.31.025.467q.044,1.014.085,2.03a7.313,7.313,0,0,0-4.182,1.121.922.922,0,0,0,.461,1.7,25.7,25.7,0,0,0,3.189-.329c.208-.02.419-.032.629-.043.036.978.06,1.956.092,2.934-.9.053-1.792.1-2.686.18a3.8,3.8,0,0,0-2.562.759,1.006,1.006,0,0,0,.2,1.562,3.945,3.945,0,0,0,2.733.158c.8-.1,1.593-.229,2.387-.355.014.494.021.988.035,1.481a7.424,7.424,0,0,0-4.171,1.275c-.669.5-.6,1.969.5,1.834,1.266-.156,2.484-.515,3.727-.776.009.374.011.749.018,1.123a22.758,22.758,0,0,0-4.285,1.552c-1.064.527-.277,2.005.761,1.808a20.045,20.045,0,0,0,3.562-1.059q.057,3.473.068,6.949a1.017,1.017,0,0,0-.962-.661c-1.584.1-3.285.552-4.016,2.131a.932.932,0,0,0,1.264,1.264,9.753,9.753,0,0,1,2.753-1.315,1.163,1.163,0,0,0,.961-.644c.006,2.329-.009,4.658-.033,6.989a1.068,1.068,0,0,0-.322-.13c-1.841-.393-5.3.8-5.481,2.971a1.007,1.007,0,0,0,1,1.005c.884-.092,1.432-.7,2.191-1.11a16.1,16.1,0,0,1,2.286-.775,1.1,1.1,0,0,0,.3-.165c-.007.513-.021,1.025-.029,1.537a1.227,1.227,0,0,0-.5.117c-1.1.513-2.542.971-3.269,1.984a1.061,1.061,0,0,0,.91,1.586,4.462,4.462,0,0,0,1.869-.7c.32-.165.632-.352.941-.542-.02.893-.048,1.785-.073,2.678a1.027,1.027,0,0,0-1.051-.251c-1.675.452-3.689.952-5,2.15-.846.775.076,1.908,1.021,1.754a12.292,12.292,0,0,0,2.288-.826c.768-.291,1.514-.629,2.287-.909a1.241,1.241,0,0,0,.409-.24c-.033,1.08-.075,2.16-.116,3.24a1.3,1.3,0,0,0-.238.014c-1.377.206-2.8.068-4.163.357-1.074.228-.857,1.639,0,1.966a6.99,6.99,0,0,0,4.315-.119c-.031.748-.069,1.5-.1,2.243a1.806,1.806,0,0,0-.41-.1,11.664,11.664,0,0,0-3.468-.139,1,1,0,0,0-.238,1.818,12.735,12.735,0,0,0,3.706.751.875.875,0,0,0,.3-.023q-.321,6.233-.815,12.455a.744.744,0,0,0-.017-.107,1.134,1.134,0,0,0-1.359-.772,4.555,4.555,0,0,0-2.573.777.88.88,0,0,0,.177,1.373,5.121,5.121,0,0,0,2.983-.02.987.987,0,0,0,.744-.714c-.121,1.485-.26,2.968-.394,4.453-.645-.059-1.3-.059-1.95-.072a11.108,11.108,0,0,0-4.419.425.979.979,0,0,0,0,1.87,14.419,14.419,0,0,0,4.122.294c.655.012,1.334.073,2.008.086q-.255,2.6-.543,5.19c-1.392-1.187-3.271-2.34-5.014-2.308a.939.939,0,0,0-.656,1.585,11.541,11.541,0,0,0,2.426,1.564c.865.5,1.666,1.085,2.493,1.642a1.075,1.075,0,0,0,.442.176c-.047.4-.1.805-.149,1.208-1.451-.481-3.111-.866-4.353-.3-.661.3-.488,1.19,0,1.536a6.32,6.32,0,0,0,2.557.665c.511.1,1.016.221,1.517.356-.118.941-.245,1.881-.371,2.821a7.371,7.371,0,0,0-2.955-1.343,1,1,0,0,0-.863,1.5,9.252,9.252,0,0,0,3.19,2.069,1.2,1.2,0,0,0,.31.11c-.073.52-.15,1.039-.224,1.559a1.108,1.108,0,0,0-.789-.313c-1.011.038-1.883-.485-2.87-.5a1.015,1.015,0,0,0-.867,1.511c.675,1.247,2.451,1.516,3.737,1.361a1.625,1.625,0,0,0,.515-.151c-.128.861-.272,1.721-.406,2.58a1.2,1.2,0,0,0-.43-.123c-1.371-.144-3.13-.516-4.447.031a1.02,1.02,0,0,0,0,1.946c1.316.547,3.081.176,4.447.032a1.19,1.19,0,0,0,.138-.027c-.142.876-.293,1.75-.441,2.625a1.111,1.111,0,0,0-.983-.589,8.76,8.76,0,0,0-3.753.241,1.073,1.073,0,0,0,0,1.846,8.761,8.761,0,0,0,3.753.241,1.153,1.153,0,0,0,.738-.282q-.329,1.91-.677,3.818a.905.905,0,0,0-.727-.638,6.27,6.27,0,0,0-2.856-.045,1.176,1.176,0,0,0,0,2.247,6.271,6.271,0,0,0,2.856-.043.85.85,0,0,0,.487-.243c-.145.783-.306,1.563-.457,2.345a1.413,1.413,0,0,0-.969-.16,5.645,5.645,0,0,0-2.178.532,1.16,1.16,0,0,0,.273,2.093,5.9,5.9,0,0,0,2.442-.248c-.441,2.2-.9,4.4-1.386,6.588-.139.623-.287,1.247-.43,1.87a11.007,11.007,0,0,0-1.838-.079,11.858,11.858,0,0,0-4.215.387.983.983,0,0,0,0,1.878,11.8,11.8,0,0,0,4.215.387c.41,0,.834.01,1.243-.011-.236.993-.494,1.98-.739,2.971-2.091-.373-4.69-.7-6.638-.132-.714.208-1.031,1.414-.229,1.753a15.339,15.339,0,0,0,6.277.75c-.138.541-.286,1.079-.426,1.618a1.22,1.22,0,0,0-.228-.03,11.41,11.41,0,0,0-3.768.233.882.882,0,0,0,0,1.685,10.177,10.177,0,0,0,3.433.244q-1.652,6.167-3.539,12.266c-1.589-.881-3.245-2.041-5.052-2.2-.813-.071-1.147,1.019-.639,1.543,1.291,1.331,3.419,1.841,5.093,2.559-.2.644-.413,1.287-.62,1.93a1.411,1.411,0,0,0-.133-.059,14.372,14.372,0,0,0-5.008-1.163.891.891,0,0,0-.447,1.647,14.423,14.423,0,0,0,4.883,1.589l.043,0c-.108.325-.225.647-.335.972a.842.842,0,0,0-.34-.133l-1.631-.235a1.12,1.12,0,0,0-.595,2.16l1.583.408a1.091,1.091,0,0,0,.211.032c-1.288,3.7-2.647,7.38-4.019,11.051a9.827,9.827,0,0,0-6.091-.341.978.978,0,0,0,0,1.868,17.04,17.04,0,0,0,3.11.432c.711.086,1.412.229,2.115.355q-1.075,2.864-2.146,5.73c-.284.565-.573,1.129-.858,1.695a.856.856,0,0,0-.729-.749c-2.248-.334-4.653-1.1-6.939-.745a.973.973,0,0,0-.23,1.762c2.119.921,4.633.8,6.89,1.044a.854.854,0,0,0,.363-.037c-.871,1.713-1.75,3.423-2.658,5.115q-2,3.73-3.977,7.471a14.6,14.6,0,0,0-5.518.643.887.887,0,0,0,0,1.695,11.194,11.194,0,0,0,4.207.127l-1.382,2.612c-2.339-1.134-5.958-2.121-8.111-.415-.584.463-.164,1.3.4,1.51a12.022,12.022,0,0,0,3.478.234,16.088,16.088,0,0,1,3.226.575l-.632,1.195a.916.916,0,0,0-.7-.59,12.007,12.007,0,0,0-6-.18,1,1,0,0,0,.266,1.963,49.609,49.609,0,0,1,5.187.211,1.127,1.127,0,0,0,.532-.05q-.532,1-1.064,2.01c-1.057,1.994-2.144,3.977-3.247,5.955-.016,0-.03,0-.046,0-2.154.32-4.316-.069-6.474.012a.883.883,0,0,0-.234,1.726,10.512,10.512,0,0,0,5.576.365c-.142.251-.284.5-.427.755a.965.965,0,0,0-.717-.037,33.6,33.6,0,0,1-5.425.771c-.964.133-.819,1.578,0,1.81a9.249,9.249,0,0,0,4.812-.192c-2.978,5.252-5.986,10.5-8.792,15.837a1.156,1.156,0,0,0-1.1-.051,11.981,11.981,0,0,0-4,2.436.9.9,0,0,0,.865,1.485,8.317,8.317,0,0,0,2.18-.847c.232-.108.453-.23.678-.35-.325.641-.637,1.287-.956,1.93a1.1,1.1,0,0,0-.287-.48,1.254,1.254,0,0,0-1.726,0l-.938.763c-.141.114-.283.227-.421.345a1.391,1.391,0,0,0-.489,1.041,1.1,1.1,0,0,0,.81,1.065,1.473,1.473,0,0,0,1.089-.18c.238-.151.453-.348.675-.522l.459-.362q-.935,1.936-1.814,3.9c-.043.059-.085.121-.128.181a1.578,1.578,0,0,0-.634-.1c-.321.039-.873.037-.989.416-.712,2.319,2.663,4.127,4.492,4.632,4,1.1,8.458.983,12.568,1.217,9.986.569,19.989.969,29.992,1.043q14.684.107,29.364-.383c9.958-.333,20.039-.554,29.912-1.977,2.088-.3,1.968-3.113.467-4.039,1.377-5.689,1.354-11.821,2.011-17.576.844-7.372,2-14.728,3.439-22.009,1.355-6.879,3.04-13.674,4.938-20.422.92-3.273,1.783-6.559,2.761-9.815.516-1.719,1.074-3.43,1.546-5.163.212-.778.359-1.569.494-2.361,9.321-14.28,9.959-32.357,8.826-48.917-.66-9.65-1.923-19.255-3.037-28.86q-1.862-16.04-3.726-32.081c-4.966-42.777-9.866-85.563-14.945-128.326q-2.071-17.437-4.18-34.871c-.487-4.606-1.014-9.214-1.364-13.832-.271-3.579-.2-7.291-.529-10.91,4.646-5.025,9.265-10.076,13.925-15.079,7.538-8.091,19.077-17.287,19.667-29.245.3-6.148-2.8-11.753-6.317-16.56-4.029-5.513-8.224-10.8-11.737-16.679a121.915,121.915,0,0,1-6.869-13.267,63.174,63.174,0,0,1-6.028-9.108c-2.509-4.775-4.115-10.075-3.24-15.5.642-3.977,2.41-7.445,4.285-10.878a113.675,113.675,0,0,0,3.21-17.684c1.45-12.552,1.183-25.234.558-37.829-.115-2.284-.23-4.613-.368-6.97a27.419,27.419,0,0,1,3.933,2.769,75.883,75.883,0,0,1,6.448,6.312A81.714,81.714,0,0,0,909.31,440.2c10.637,7.056,23,11.2,35.417,13.8,3.588.751,7.2,1.373,10.83,1.9,2.235.322,4.593.791,6.928,1a5.9,5.9,0,0,0,3.731,1.795A71.556,71.556,0,0,1,961.112,446.051ZM853.818,356.314q.669-1.822,1.338-3.641.063,1.315.128,2.63a.772.772,0,0,0,.5.648c-.1.357-.191.716-.3,1.074C854.941,356.766,854.379,356.543,853.818,356.314Zm-29.133,285.3a1.02,1.02,0,0,0,.56-.243c.023.2.048.409.073.613a5.849,5.849,0,0,0-1.537-.338C824.086,641.639,824.391,641.637,824.686,641.61ZM859.47,350.042l.316,2.259c-.262.27-.534.534-.792.809.191-1.015.341-2.038.473-3.063Zm-1.552-4.387c-.288,2.163-.674,4.292-1.146,6.406-.076.15-.16.3-.235.446l-.175-3.238a.69.69,0,0,0-1.349-.182l-1.548,4.284q-.026-1.472-.053-2.944A19.548,19.548,0,0,1,857.918,345.655Zm-5.727,5.507c-.062.142-.129.277-.187.421a.25.25,0,0,0,.189.336q0,1.888.007,3.779c-.587-.207-1.173-.42-1.769-.591.015-.054.031-.108.042-.166q1.047-5.356,1.7-10.765Q852.185,347.669,852.191,351.162Zm-20.138-9.139c.121.554.222,1.112.319,1.67-.078.165-.163.328-.235.494l-.255-.894Q831.969,342.657,832.053,342.023Zm-3.624,2.12.064.349c-.015.371-.045.735-.091,1.1-.03-.087-.069-.171-.1-.259C828.34,344.933,828.4,344.539,828.43,344.143Zm-10.852.834c-.049.738-.1,1.476-.15,2.215a13.253,13.253,0,0,1-.719-1.842q.076-1.4.153-2.791Zm-5.534.595c.082.269.165.538.248.807l-.011.128c-.08-.081-.17-.155-.251-.237Zm9.747,299.039a13.559,13.559,0,0,0,2.545-.714c.018,0,.038,0,.057.006a7.5,7.5,0,0,1,1.2.337q.118,1,.24,2Q823.767,645.526,821.791,644.61Zm3.451,12a16.953,16.953,0,0,1,1.784-1.075c.052.385.1.771.153,1.155C826.532,656.687,825.886,656.653,825.242,656.614Zm2.643,8.849c-.186.133-.373.27-.559.409.28-.307.547-.627.843-.924l.106-.1.059.445A.968.968,0,0,0,827.885,665.464Z" transform="translate(-691.382 -284.446)" fill="#473f37"/>
      <path id="Path_400" data-name="Path 400" d="M804.428,615.837l.692-.594a1.074,1.074,0,1,0-1.52-1.519c-.2.23-.4.461-.592.692a1,1,0,0,0,1.42,1.42Z" transform="translate(-665.587 -208.235)" fill="#08491f"/>
      <path id="Path_401" data-name="Path 401" d="M805.892,640.507l1.312-.225a1.276,1.276,0,1,0-.679-2.46l-1.259.419a1.2,1.2,0,0,0-.82,1.445A1.209,1.209,0,0,0,805.892,640.507Z" transform="translate(-665.2 -202.594)" fill="#08491f"/>
      <path id="Path_402" data-name="Path 402" d="M810.446,676.331a1.278,1.278,0,0,0-1.532-.87,9.783,9.783,0,0,0-4.627,1.653.894.894,0,0,0,.685,1.625c1.549-.208,3.058-.65,4.6-.876A1.256,1.256,0,0,0,810.446,676.331Z" transform="translate(-665.322 -193.865)" fill="#08491f"/>
      <path id="Path_403" data-name="Path 403" d="M805.319,686.583c1.383-.032,2.826-.9,4.077-1.439,1.175-.5.336-2.5-.874-2.074-1.288.452-2.906.8-3.949,1.712A1.065,1.065,0,0,0,805.319,686.583Z" transform="translate(-665.231 -192.112)" fill="#08491f"/>
      <path id="Path_404" data-name="Path 404" d="M807.209,706.441a1.25,1.25,0,1,0,.963-2.286l-.989-.229a1.162,1.162,0,0,0-1.362.669,1.141,1.141,0,0,0,.472,1.442Z" transform="translate(-664.89 -187.274)" fill="#08491f"/>
      <path id="Path_405" data-name="Path 405" d="M804.911,707.974a1.1,1.1,0,0,0,.485,1.839,4.76,4.76,0,0,0,2.923-.478c1.074-.5.3-2.382-.817-1.937a3.734,3.734,0,0,1-1.508.262A1.373,1.373,0,0,0,804.911,707.974Z" transform="translate(-665.156 -186.478)" fill="#08491f"/>
      <path id="Path_406" data-name="Path 406" d="M802.474,753.418c1.487-.392.847-2.55-.627-2.276-1.287.24-2.572.272-3.866.413a1.03,1.03,0,0,0-.272,2.012A9.363,9.363,0,0,0,802.474,753.418Z" transform="translate(-666.919 -176.334)" fill="#08491f"/>
      <path id="Path_407" data-name="Path 407" d="M797.9,769.721c1.333-.16,1.421-2.171,0-2.149a8.012,8.012,0,0,1-3.387-1.014c-.777-.336-1.719.382-1.231,1.229A4.664,4.664,0,0,0,797.9,769.721Z" transform="translate(-667.805 -172.776)" fill="#08491f"/>
      <path id="Path_408" data-name="Path 408" d="M790.794,786.682a1.282,1.282,0,0,0,1.717-.451,1.266,1.266,0,0,0-.45-1.717,7.312,7.312,0,0,0-3.2-1.2.992.992,0,0,0-.85,1.48A6.96,6.96,0,0,0,790.794,786.682Z" transform="translate(-669.03 -168.875)" fill="#08491f"/>
      <path id="Path_409" data-name="Path 409" d="M785.407,797.629a21.928,21.928,0,0,1,3.2.923c1.131.437,1.785-1.314.8-1.909-1.954-1.184-4.812-2.412-7.065-1.417a1,1,0,0,0,0,1.708A12.714,12.714,0,0,0,785.407,797.629Z" transform="translate(-670.421 -166.2)" fill="#08491f"/>
      <path id="Path_410" data-name="Path 410" d="M777.622,804.835a27.345,27.345,0,0,0,5.7.6c1.24.1,1.488-1.873.293-2.16a11.3,11.3,0,0,0-5.994-.235A.942.942,0,0,0,777.622,804.835Z" transform="translate(-671.557 -164.38)" fill="#08491f"/>
      <path id="Path_411" data-name="Path 411" d="M768.978,823.95a26.761,26.761,0,0,0,5.456-.6c1.271-.191.839-2.02-.286-2.111a9.486,9.486,0,0,0-5.635,1A.927.927,0,0,0,768.978,823.95Z" transform="translate(-673.615 -160.101)" fill="#08491f"/>
      <path id="Path_412" data-name="Path 412" d="M768.569,834.529a1.1,1.1,0,0,0,0-2.2,8.4,8.4,0,0,0-3.477.14,1,1,0,0,0,0,1.918A8.4,8.4,0,0,0,768.569,834.529Z" transform="translate(-674.468 -157.546)" fill="#08491f"/>
      <path id="Path_413" data-name="Path 413" d="M763.317,837.1c1.2.786,3.031.457,4.312.056a1.136,1.136,0,0,0-.6-2.189,10.75,10.75,0,0,1-1.715.264,7.318,7.318,0,0,0-1.775.191A.931.931,0,0,0,763.317,837.1Z" transform="translate(-674.818 -156.916)" fill="#08491f"/>
      <path id="Path_414" data-name="Path 414" d="M761.546,840.866a1.041,1.041,0,0,0,.893,1.557,7.927,7.927,0,0,0,3.276-1.414,1.18,1.18,0,0,0-1.191-2.038A7.655,7.655,0,0,0,761.546,840.866Z" transform="translate(-675.165 -156.014)" fill="#08491f"/>
    </g>
    <g id="Group_172" data-name="Group 172" transform="translate(715.59 251.538)">
      <path id="Path_415" data-name="Path 415" d="M985.971,413.143c-1.544-3.425-3.143-6.826-4.847-10.174a132.82,132.82,0,0,0-12.694-20.554c-9.851-12.883-22.8-22.755-38.6-27.045a68,68,0,0,0-13.609-2.276,60.4,60.4,0,0,0-6.365-.116,34.962,34.962,0,0,0-.389-3.716c-.627-4.143-3.014-7.183-5.453-10.448l-4.024-5.387c-.926-1.24-1.756-2.687-3.127-3.491a5.172,5.172,0,0,0-1.915-.658,16.31,16.31,0,0,0-1.388-5.587,1.524,1.524,0,0,0-2.064-.542l-1.1.627a16.871,16.871,0,0,0-.287-6.858,1.4,1.4,0,0,0-2.311-.611c-1.375,1.276-2.695,2.556-3.947,3.895a50.907,50.907,0,0,0,.893-9.259c0-.6-.77-1.172-1.317-.755a19.726,19.726,0,0,0-6.567,8.486c-.124.31.372.505.531.224a19.876,19.876,0,0,1,5.382-6.152,73.161,73.161,0,0,1-2.426,11.37,34.04,34.04,0,0,0-5.06-1.918c.015-.054.03-.108.042-.166a152,152,0,0,0,2.833-31.39c7.7.8,14.4-5.768,15.674-13.3,1.441-8.526-2.132-18.385-9.449-23.263a15.8,15.8,0,0,0-21.629,4.34,15.982,15.982,0,0,0-2.117,12.154,18.938,18.938,0,0,0,2.491,5.592c1.662,2.787,1.377,5.49,1.143,8.608q-.721,9.627-1.44,19.253c-.191,2.557-.461,5.168-.672,7.79-.131.335-.26.67-.39,1.006a16.436,16.436,0,0,1-.324-3.008,1.759,1.759,0,0,0-3.252-.881,21.452,21.452,0,0,0-1.2,2.339q-.181-.634-.361-1.269c-.5-1.769-3.378-1.487-3.286.445a12.891,12.891,0,0,1-.087,2.224,35.112,35.112,0,0,0-2.147-4.935,1.566,1.566,0,0,0-2.833.37c-.166.729-.33,1.458-.5,2.187a41.215,41.215,0,0,0-2.085-4.555c-.769-1.444-2.786-.658-2.886.782q-.268,3.876-.53,7.755a13.858,13.858,0,0,1-1.351-6.766c.1-2.125-3.088-2.068-3.269,0q-.268,3.041-.526,6.081a39.745,39.745,0,0,0-4.161-3.644c-.27-1.031-.544-2.061-.815-3.09-.433-1.639-2.657-1.163-2.809.368a1.525,1.525,0,0,0-1.74.7,9.113,9.113,0,0,0,.947,10.536,1.329,1.329,0,0,0,1.638.34c.117.482.241.962.378,1.44a14.31,14.31,0,0,0-4.864-.118c-4.986-6.408-6.677-14.574-7.113-22.581-.244-4.47-.143-8.948.023-13.418.164-4.4.972-9.318-1-13.433-3.723-7.782-14.114-7.608-20.316-3.263-6.226,4.36-11.289,12.451-9.659,20.308a11.159,11.159,0,0,0,8.074,8.516c3.917,1.057,8.1.282,11.909-1,1.567,4.887,3.179,9.76,4.768,14.64,1.506,4.631,2.981,9.329,4.9,13.817-.5.352-.979.728-1.456,1.117-2.193-3.014-4.567-5.921-6.673-8.98a1.43,1.43,0,0,0-2.6,1.1,27.287,27.287,0,0,0,1.2,3.589A4.377,4.377,0,0,0,806,324.779a10.655,10.655,0,0,0,.824,2.817c.172.466.876,2.041.485,2.473-.2.217-.627.3-.784.089a1.237,1.237,0,0,0-2.226.291c-.893,2.68,2.616,3.414,4.467,2.409a34.008,34.008,0,0,0-2.406,4.4q-.48,1.072-.9,2.162l-.009-.026a11.94,11.94,0,0,0-1.361-2.383,4.707,4.707,0,0,0,2.033-1.818c.19-.3-.13-.765-.484-.629a5.8,5.8,0,0,1-3.806.138,10.548,10.548,0,0,0-1.734-1.067c-1.4-.685-3.22,1.234-1.8,2.333.1.079.206.149.309.222l-.009.011a11.076,11.076,0,0,1,2.133,1.652,5.551,5.551,0,0,0-1.317.546c-2.367,1.365-3.069,4.008-2.763,6.585.436,3.647,2.047,7.28,3.23,10.762a48.861,48.861,0,0,0-17.57,7.147,75.566,75.566,0,0,0-17.977,16.359,187.111,187.111,0,0,0-14.407,21.11c-4.943,8.114-9.836,16.259-14.763,24.383-4.354,7.178-9.272,15.244-17.538,18.322-2.4.894-1.478,4.624,1.078,3.907,30.6-8.58,64.779-19.521,80.551-49.719a55.349,55.349,0,0,0,5.564-15.345c.176,3.494.367,6.987.636,10.475.618,8.072,1.468,16.134,2.772,24.127a171.632,171.632,0,0,0,5.546,23.42,55.228,55.228,0,0,1,2.752,11.709,86.957,86.957,0,0,1-.044,10.117c-.163,4.8-.078,10.638,2.328,15.06a50.87,50.87,0,0,1-6.791,29.469,47.964,47.964,0,0,1-10.615,12.157c-3.845,3.223-8.054,6.389-10.575,10.835-6.31,11.126,2.212,21.724,9.495,29.723a270.609,270.609,0,0,0,21.568,21.17c-2.242,5.9,1.919,12.716,6.96,16.477,5,3.73,11.1,7.644,17.487,9.713a14.35,14.35,0,0,0-1.841.134c-.889.126-.719,1.408,0,1.637a13.351,13.351,0,0,0,3.541.6,3.514,3.514,0,0,0-1.508.432.916.916,0,0,0-.286,1.25c-.589.137-1.18.283-1.775.41a.649.649,0,0,0-.154,1.174c1.714.751,3.441,1.437,5.185,2.1l-.034.017a3.353,3.353,0,0,0-3.763.277.868.868,0,0,0,.607,1.466c.144,0,.286,0,.426-.006a.711.711,0,0,0,.637.682,11.679,11.679,0,0,1,3.487.7,25.924,25.924,0,0,0-2.827,1.921,4.4,4.4,0,0,0-.935.463,1.029,1.029,0,0,0,.515,1.9,8.288,8.288,0,0,0,2.791-.68c.424.091.849.183,1.274.273l.014.108c-1.027,1.037-2.93,1.36-3.727,2.748a.724.724,0,0,0,.62,1.08c.468-.022.934-.052,1.4-.081-.464.24-.926.5-1.393.787a.631.631,0,0,0,.517,1.137,1.212,1.212,0,0,0,.258.793,2.6,2.6,0,0,0-1.235,1.287.4.4,0,0,0,.281.494c1,.166,1.93-.73,2.692-1.291.235-.172.5-.357.767-.551.136-.059.271-.118.405-.174.078-.032.154-.068.232-.1l.185,1.368a10.216,10.216,0,0,0-2.088,1.09,3.916,3.916,0,0,0-1.75,1.854.406.406,0,0,0,.494.495.679.679,0,1,1,.577.617c-.091.6.427,1.291,1.036,1.149a9.313,9.313,0,0,0-2.529,3.154c-.34.754.441,1.915,1.291,1.292,1.351-.99,2.511-2.207,3.829-3.238.089.663.174,1.324.261,1.987a1.3,1.3,0,0,0-.776.211c-.7.435-1.419.855-2.106,1.312-.706.471-1.488,1.038-1.5,1.96a.967.967,0,0,0,.488.851,2.519,2.519,0,0,0,2.414-.416c.624-.367,1.232-.767,1.844-1.158.09.693.177,1.388.267,2.082a1.12,1.12,0,0,0-1.046.4c-.538.6-1.08,1.2-1.614,1.8-.491.558-1.288,1.285-1.4,2.036a1.076,1.076,0,0,0,1.3,1.3,4.5,4.5,0,0,0,1.918-1.517c.4-.42.794-.845,1.19-1.269.111.872.212,1.745.319,2.619a16.255,16.255,0,0,1-2.057.4,6.2,6.2,0,0,0-2.425.521,1.028,1.028,0,0,0,0,1.76c1.335.8,3.265.37,4.789-.171.052.432.107.863.158,1.294a1.062,1.062,0,0,0-.87.132q-.782.521-1.562,1.042a1.13,1.13,0,1,0,1.14,1.951l1.556-.834q.38,3.326.74,6.655a23.439,23.439,0,0,0-2.045,1.461,25.109,25.109,0,0,0-2.7.745,1.038,1.038,0,0,0,0,1.984,7.764,7.764,0,0,0,5.112-.741c.142,1.335.276,2.67.412,4.005a18.172,18.172,0,0,0-4.787.055,9.818,9.818,0,0,0-4.5,1.253,1.019,1.019,0,0,0,.51,1.881,20.455,20.455,0,0,0,4.609-.5c1.456-.167,2.922-.189,4.371-.393a.306.306,0,0,0,.031-.007q.244,2.439.474,4.879a1.019,1.019,0,0,0-.523-.3c-1.365-.335-3.47-.505-4.526.641a.971.971,0,0,0,.424,1.6,5.3,5.3,0,0,0,1.889.018c.637-.038,1.277-.068,1.914-.052a1.015,1.015,0,0,0,.948-.56c.073.777.136,1.554.207,2.332a11.851,11.851,0,0,0-4.891,1.01c-1.2.616-2.3,2.32-1.013,3.427a.916.916,0,0,0,1.543-.639c-.231.02-.18-.046.153-.193a1.881,1.881,0,0,1,.65-.314,9.472,9.472,0,0,1,1.524-.339c.75-.144,1.505-.26,2.263-.359.069.778.129,1.559.2,2.339a1.236,1.236,0,0,0-.936-.445c-1.521-.063-3.579.278-4.473,1.655a1.065,1.065,0,0,0,.915,1.594,10.348,10.348,0,0,0,1.823-.494,5.114,5.114,0,0,1,1.735-.144,1.088,1.088,0,0,0,1.073-.533c.166,1.967.32,3.935.473,5.9-2.113.4-4.234.926-5.547,2.766-.471.659.3,1.488,1,1.306,1.638-.427,3.083-1.386,4.715-1.841.046.612.088,1.223.132,1.834a.976.976,0,0,0-.538.025,14.248,14.248,0,0,0-4.578,1.99.993.993,0,0,0,.7,1.68,13.476,13.476,0,0,0,4.577-1.506c.069.986.126,1.972.191,2.958a1.117,1.117,0,0,0-1.228-.376c-1.756.485-3.882,1-5.26,2.255a1,1,0,0,0,.7,1.7c1.764-.149,3.529-1.052,5.216-1.57a1.188,1.188,0,0,0,.668-.486c.079,1.234.15,2.468.224,3.7a20.752,20.752,0,0,0-3.829-.266,10.441,10.441,0,0,0-4.64.687.953.953,0,0,0,.225,1.726,21.146,21.146,0,0,0,4.414.027c1.324-.005,2.651.155,3.972.172.072,1.288.133,2.577.2,3.866a1.111,1.111,0,0,0-.3-.165c-1.7-.578-4.3-1-5.921-.039a.963.963,0,0,0,.227,1.735,8.319,8.319,0,0,0,2.648.3c.918.048,1.824.195,2.738.281a.979.979,0,0,0,.711-.185c.007.155.017.31.023.467.031.676.057,1.352.085,2.03a7.311,7.311,0,0,0-4.18,1.121.922.922,0,0,0,.461,1.7,25.686,25.686,0,0,0,3.189-.329c.208-.02.419-.031.628-.043.037.978.062,1.956.094,2.934-.9.053-1.792.1-2.686.18a3.8,3.8,0,0,0-2.562.759,1.006,1.006,0,0,0,.2,1.562,3.932,3.932,0,0,0,2.733.158c.8-.1,1.592-.229,2.387-.354.014.493.021.986.033,1.479a7.421,7.421,0,0,0-4.169,1.275c-.669.5-.6,1.969.5,1.834,1.266-.156,2.483-.515,3.727-.776.009.375.011.749.019,1.123a22.811,22.811,0,0,0-4.286,1.553c-1.063.526-.276,2,.762,1.808a20.128,20.128,0,0,0,3.562-1.06q.057,3.473.067,6.95a1.016,1.016,0,0,0-.961-.663c-1.584.1-3.285.552-4.016,2.131a.932.932,0,0,0,1.263,1.264,9.759,9.759,0,0,1,2.753-1.315,1.167,1.167,0,0,0,.961-.644q.007,3.493-.035,6.988a1.054,1.054,0,0,0-.32-.129c-1.843-.393-5.3.8-5.481,2.971a1.006,1.006,0,0,0,1,1c.884-.092,1.431-.7,2.191-1.11a16.193,16.193,0,0,1,2.286-.775,1.092,1.092,0,0,0,.3-.165c-.007.512-.021,1.025-.029,1.537a1.223,1.223,0,0,0-.5.117c-1.1.512-2.542.971-3.27,1.984a1.061,1.061,0,0,0,.911,1.586,4.451,4.451,0,0,0,1.867-.7c.322-.165.633-.352.942-.542-.02.893-.048,1.786-.073,2.679a1.026,1.026,0,0,0-1.052-.252c-1.674.452-3.689.952-5,2.151-.846.775.075,1.909,1.021,1.754a12.314,12.314,0,0,0,2.288-.826c.768-.291,1.514-.629,2.287-.909a1.223,1.223,0,0,0,.408-.24c-.033,1.08-.074,2.16-.114,3.24a1.33,1.33,0,0,0-.238.014c-1.377.206-2.8.068-4.164.357-1.073.228-.856,1.639,0,1.966a6.994,6.994,0,0,0,4.316-.119c-.031.748-.07,1.5-.1,2.243a1.861,1.861,0,0,0-.409-.1,11.676,11.676,0,0,0-3.468-.139,1,1,0,0,0-.237,1.818,12.762,12.762,0,0,0,3.706.753.877.877,0,0,0,.3-.025q-.321,6.233-.815,12.455c-.006-.036-.009-.073-.017-.108a1.134,1.134,0,0,0-1.359-.771,4.541,4.541,0,0,0-2.573.778.879.879,0,0,0,.176,1.372,5.12,5.12,0,0,0,2.983-.02.984.984,0,0,0,.744-.714c-.12,1.485-.259,2.968-.394,4.453-.644-.059-1.3-.059-1.948-.072a11.119,11.119,0,0,0-4.421.425.98.98,0,0,0,0,1.87,14.419,14.419,0,0,0,4.123.294c.655.012,1.334.073,2.008.086q-.253,2.6-.542,5.192c-1.392-1.187-3.271-2.341-5.014-2.309a.939.939,0,0,0-.656,1.585,11.563,11.563,0,0,0,2.425,1.564c.866.5,1.668,1.085,2.494,1.642a1.076,1.076,0,0,0,.442.176c-.048.4-.1.805-.149,1.208-1.451-.482-3.111-.865-4.353-.3-.663.3-.488,1.19,0,1.536a6.318,6.318,0,0,0,2.556.665c.512.1,1.017.22,1.519.356-.118.941-.245,1.881-.371,2.821a7.377,7.377,0,0,0-2.956-1.343,1,1,0,0,0-.862,1.5,9.259,9.259,0,0,0,3.19,2.069,1.2,1.2,0,0,0,.31.11c-.073.52-.15,1.04-.225,1.559a1.1,1.1,0,0,0-.788-.312c-1.012.037-1.883-.487-2.87-.5a1.014,1.014,0,0,0-.867,1.511c.675,1.246,2.451,1.516,3.737,1.361a1.618,1.618,0,0,0,.514-.151c-.128.861-.271,1.72-.405,2.58a1.215,1.215,0,0,0-.43-.123c-1.371-.144-3.13-.516-4.446.031a1.021,1.021,0,0,0,0,1.947c1.315.546,3.08.175,4.446.031.049,0,.092-.017.138-.026-.142.876-.295,1.749-.441,2.625a1.111,1.111,0,0,0-.983-.59,8.764,8.764,0,0,0-3.753.241,1.073,1.073,0,0,0,0,1.846,8.764,8.764,0,0,0,3.753.241,1.156,1.156,0,0,0,.738-.282q-.329,1.91-.679,3.818a.905.905,0,0,0-.726-.638,6.279,6.279,0,0,0-2.857-.044,1.176,1.176,0,0,0,0,2.248,6.294,6.294,0,0,0,2.857-.044.849.849,0,0,0,.487-.243c-.146.783-.305,1.563-.457,2.345a1.413,1.413,0,0,0-.969-.16,5.64,5.64,0,0,0-2.178.532,1.16,1.16,0,0,0,.273,2.093,5.878,5.878,0,0,0,2.442-.248c-.441,2.2-.9,4.4-1.386,6.588-.14.623-.287,1.246-.43,1.87a11.026,11.026,0,0,0-1.838-.079,11.856,11.856,0,0,0-4.215.387.984.984,0,0,0,0,1.88,11.853,11.853,0,0,0,4.215.387c.41-.006.834.009,1.241-.011-.235.991-.494,1.979-.739,2.97-2.09-.373-4.689-.7-6.637-.132-.714.208-1.031,1.414-.229,1.753a15.338,15.338,0,0,0,6.277.75c-.138.541-.286,1.078-.427,1.617a1.307,1.307,0,0,0-.228-.028,11.405,11.405,0,0,0-3.767.233.881.881,0,0,0,0,1.685,10.18,10.18,0,0,0,3.431.244q-1.65,6.167-3.537,12.266c-1.59-.881-3.245-2.041-5.052-2.2-.814-.071-1.147,1.019-.639,1.543,1.291,1.331,3.418,1.841,5.093,2.559-.2.644-.414,1.287-.621,1.93-.043-.02-.084-.042-.132-.059a14.376,14.376,0,0,0-5.009-1.163.891.891,0,0,0-.446,1.647,14.407,14.407,0,0,0,4.884,1.589c.015,0,.028,0,.043,0-.108.325-.225.648-.336.972a.831.831,0,0,0-.339-.133l-1.631-.235a1.153,1.153,0,0,0-1.378.782,1.14,1.14,0,0,0,.784,1.378l1.583.408a1.091,1.091,0,0,0,.211.032c-1.288,3.7-2.647,7.38-4.019,11.051a9.83,9.83,0,0,0-6.092-.341.978.978,0,0,0,0,1.868,17.077,17.077,0,0,0,3.111.432c.711.086,1.41.229,2.113.355q-1.073,2.863-2.146,5.73c-.284.565-.573,1.129-.857,1.695a.856.856,0,0,0-.73-.749c-2.248-.334-4.653-1.1-6.938-.745a.973.973,0,0,0-.23,1.763c2.119.921,4.632.8,6.89,1.044a.848.848,0,0,0,.362-.037c-.871,1.713-1.749,3.423-2.658,5.115q-2,3.73-3.976,7.471a14.608,14.608,0,0,0-5.518.643.888.888,0,0,0,0,1.7,11.2,11.2,0,0,0,4.207.127l-1.382,2.612c-2.34-1.134-5.958-2.121-8.111-.415-.585.463-.164,1.3.4,1.51a12.022,12.022,0,0,0,3.478.234,16.111,16.111,0,0,1,3.226.575q-.316.6-.633,1.195a.915.915,0,0,0-.7-.59,12.008,12.008,0,0,0-6-.18,1,1,0,0,0,.265,1.963,49.32,49.32,0,0,1,5.188.212,1.142,1.142,0,0,0,.532-.052q-.532,1.005-1.064,2.011c-1.057,1.993-2.145,3.976-3.247,5.954-.016,0-.031,0-.047,0-2.154.32-4.315-.069-6.474.012a.883.883,0,0,0-.233,1.726,10.514,10.514,0,0,0,5.576.365c-.142.252-.286.5-.427.755a.97.97,0,0,0-.717-.037,33.61,33.61,0,0,1-5.425.771c-.964.133-.82,1.578,0,1.811a9.247,9.247,0,0,0,4.812-.192c-2.979,5.252-5.987,10.5-8.792,15.837a1.163,1.163,0,0,0-1.1-.051,12,12,0,0,0-4,2.436.9.9,0,0,0,.865,1.485,8.3,8.3,0,0,0,2.18-.847c.232-.108.453-.23.677-.35-.326.64-.638,1.287-.956,1.93a1.1,1.1,0,0,0-.288-.48,1.254,1.254,0,0,0-1.725,0l-.937.763c-.141.115-.283.227-.421.345a1.4,1.4,0,0,0-.49,1.041,1.1,1.1,0,0,0,.812,1.065,1.474,1.474,0,0,0,1.089-.18c.237-.151.452-.349.674-.522l.461-.362q-.981,2.032-1.9,4.089a1.624,1.624,0,0,0-.672-.116c-.321.039-.873.037-.989.416-.712,2.319,2.663,4.127,4.492,4.632,4,1.1,8.458.983,12.567,1.217,9.988.569,19.99.969,29.994,1.043q14.684.107,29.364-.383c9.957-.332,20.039-.554,29.912-1.977,2.088-.3,1.968-3.111.466-4.038,1.377-5.689,1.355-11.82,2.013-17.576.844-7.371,2-14.728,3.438-22.009,1.356-6.879,3.041-13.674,4.939-20.422.92-3.273,1.783-6.559,2.76-9.815.516-1.719,1.075-3.43,1.547-5.163.212-.778.357-1.569.494-2.361,9.321-14.28,9.958-32.357,8.826-48.917-.66-9.65-1.923-19.255-3.037-28.859q-1.864-16.042-3.726-32.083c-4.968-42.776-9.866-85.563-14.945-128.326q-2.071-17.437-4.182-34.871c-.485-4.606-1.014-9.214-1.362-13.832-.271-3.579-.2-7.291-.53-10.91,4.646-5.025,9.265-10.076,13.925-15.079,7.538-8.091,19.077-17.286,19.667-29.245.3-6.148-2.806-11.752-6.318-16.56-4.029-5.513-8.222-10.8-11.737-16.679a122.026,122.026,0,0,1-6.868-13.266,63.337,63.337,0,0,1-6.029-9.108c-2.508-4.775-4.115-10.076-3.239-15.5.642-3.977,2.41-7.445,4.284-10.878a113.348,113.348,0,0,0,3.21-17.684c1.451-12.552,1.185-25.233.558-37.829-.113-2.284-.23-4.613-.367-6.97a27.436,27.436,0,0,1,3.933,2.769,76.055,76.055,0,0,1,6.448,6.312,81.726,81.726,0,0,0,14.287,12.488c10.637,7.055,23,11.195,35.415,13.8,3.589.751,7.2,1.373,10.831,1.9,2.236.321,4.592.791,6.928,1a5.9,5.9,0,0,0,3.731,1.795A71.44,71.44,0,0,1,985.971,413.143ZM849.542,608.7a1.015,1.015,0,0,0,.56-.243l.074.613a5.845,5.845,0,0,0-1.537-.338C848.944,608.731,849.248,608.73,849.542,608.7Zm-2.893,3a13.573,13.573,0,0,0,2.545-.714c.018,0,.038,0,.057.007a7.368,7.368,0,0,1,1.195.336c.08.666.158,1.334.24,2Q848.625,612.619,846.649,611.7Zm3.45,12a17.055,17.055,0,0,1,1.785-1.075c.052.385.1.771.153,1.155C851.39,623.779,850.745,623.745,850.1,623.706Zm2.643,8.85c-.185.133-.372.27-.558.409.28-.307.546-.627.842-.924l.1-.1c.02.148.039.3.06.445A.978.978,0,0,0,852.742,632.556Z" transform="translate(-716.239 -251.538)" fill="#6b5029"/>
      <path id="Path_416" data-name="Path 416" d="M792.375,369.4a66.671,66.671,0,0,1-12.464,17.592c-11,11.287-25.237,18.583-39.9,23.947-2.025.741-4.063,1.441-6.108,2.122,1.68-1.161,3.312-2.38,4.894-3.612a113.073,113.073,0,0,0,14.847-13.9,160.309,160.309,0,0,0,12.41-16.323c4-5.833,8.08-11.721,13.406-16.444,4.9-4.349,10.89-7.594,17.409-8.16A57.9,57.9,0,0,1,792.375,369.4Z" transform="translate(-712.147 -227.657)" fill="#efa397"/>
      <path id="Path_417" data-name="Path 417" d="M799.078,352.547q-.142.922-.288,1.838c-12.892.536-22.978,10.26-30.264,20.214-4.284,5.853-8.077,12.054-12.637,17.706a120.932,120.932,0,0,1-14.653,15.145c-4.057,3.54-8.438,6.629-12.775,9.781,1.18-1.414,2.293-2.9,3.341-4.435,5.019-7.359,9.363-15.227,13.958-22.854,8.865-14.709,17.564-30.506,31.451-41.135a56.387,56.387,0,0,1,11.352-6.8,47.347,47.347,0,0,1,9.549-2.934c.285,1.031.591,2.084.961,3.087q.031,2.306.148,4.606c.075,1.5.139,3.181.335,4.85A1.472,1.472,0,0,0,799.078,352.547Z" transform="translate(-713.408 -231.258)" fill="#ad7e1e"/>
      <path id="Path_418" data-name="Path 418" d="M794.99,346.769q-.114-2.3-.148-4.606c-.37-1-.676-2.056-.961-3.087a47.349,47.349,0,0,0-9.549,2.934,56.384,56.384,0,0,0-11.352,6.8c-11.189,8.564-19.008,20.483-26.262,32.483q1.8-1.738,3.684-3.426a163.754,163.754,0,0,1,11.888-11.96c8.118-7.291,20.281-15.869,31.055-11.44.4-.034.805-.062,1.213-.079q.146-.916.288-1.838a1.472,1.472,0,0,1,.478-.927C795.13,349.95,795.066,348.267,794.99,346.769Z" transform="translate(-709.178 -231.258)" fill="#845715"/>
      <path id="Path_419" data-name="Path 419" d="M847.574,254.606c7.819-.312,13.053,7.209,14.446,14.127.861,4.278.5,9.262-2.2,12.859a10.073,10.073,0,0,1-11,3.832,2.063,2.063,0,0,0-2.591,1.974,146.768,146.768,0,0,1-2.631,32.838,2.36,2.36,0,0,0-.042.405,27.174,27.174,0,0,0-6.354-.2,1.108,1.108,0,0,0,.2-1.365,3.158,3.158,0,0,0-.581-.745c.13-.86.239-1.724.339-2.589A10.628,10.628,0,0,0,839,317.425c1.932,1.394,3.811-1.829,1.872-3.2a5.273,5.273,0,0,1-2.248-4.362,1.73,1.73,0,0,0-.747-1.466c.41-4.315.788-8.633,1.182-12.948.435-4.758.982-9.521,1.3-14.287a12.017,12.017,0,0,0-.721-5.559c-.76-1.8-2.042-3.314-2.715-5.153A11.85,11.85,0,0,1,847.574,254.606Z" transform="translate(-688.448 -250.83)" fill="#c18b2b"/>
      <path id="Path_420" data-name="Path 420" d="M824.43,305.216c.253-1.1.5-2.2.745-3.306a30.878,30.878,0,0,1,.924,3.5q-.87,0-1.74.023A1.36,1.36,0,0,0,824.43,305.216Z" transform="translate(-691.192 -239.869)" fill="#2b2104"/>
      <path id="Path_421" data-name="Path 421" d="M816.775,305.128c.012-.135.025-.271.037-.408q.249.416.523.817-.351.054-.7.111A1.626,1.626,0,0,0,816.775,305.128Z" transform="translate(-692.982 -239.218)" fill="#2b2104"/>
      <path id="Path_422" data-name="Path 422" d="M801.683,305.323c-1.647-5.469-3.259-10.948-4.945-16.4a2.056,2.056,0,0,0-2.506-1.423c-5.558,2.094-15.473,4-16.758-4.307-1.062-6.864,4.5-14.327,10.527-16.988a9.843,9.843,0,0,1,9.889.762c3.422,2.575,2.873,7.146,2.716,10.94-.3,7.289-.615,14.626.314,21.884a40.942,40.942,0,0,0,6.524,18.337,20.74,20.74,0,0,0-1.96.948C804.49,314.426,803.049,309.859,801.683,305.323Z" transform="translate(-702.084 -248.366)" fill="#c18b2b"/>
      <path id="Path_423" data-name="Path 423" d="M815.256,532.044c-3.386-1.962-7.474-4.276-9.135-8.031a8.568,8.568,0,0,1-.676-2.715c.648.547,1.293,1.1,1.947,1.638,4.933,4.077,10,8.034,15.245,11.7a56.454,56.454,0,0,0,5.964,3.692v.012C823.919,537.052,819.45,534.476,815.256,532.044Z" transform="translate(-695.573 -189.043)" fill="#efa397"/>
      <path id="Path_424" data-name="Path 424" d="M833.367,583.311c-.139-1.218-.284-2.435-.429-3.653l.245.276a6.16,6.16,0,0,0,.76.8l.023.017c7.28,10.865,8.9,24.418,9.7,37.193.5,7.888,2.638,23.258-5.469,28.463C837.534,625.321,835.757,604.256,833.367,583.311Z" transform="translate(-689.204 -175.523)" fill="#543e16"/>
      <path id="Path_425" data-name="Path 425" d="M870.088,560.4q1.848,15.8,3.686,31.6c.195,1.687.37,3.388.542,5.1-.038-.035-.074-.07-.112-.1-1.122-2.029-2.994-3.994-4.027-5.673a40.611,40.611,0,0,1-4.665-11.017,40.1,40.1,0,0,1-1.285-11.444,44.521,44.521,0,0,1,.92-7.1,20.74,20.74,0,0,1,2.708-5.409,16.1,16.1,0,0,1,1.515-1.735C869.615,556.539,869.861,558.468,870.088,560.4Z" transform="translate(-681.96 -181.326)" fill="#543e16"/>
      <path id="Path_426" data-name="Path 426" d="M886.979,559.22a10.091,10.091,0,0,0-4.25,3.545.777.777,0,0,0-.19.2l-.023.084c-.055.078-.106.157-.16.235a1.8,1.8,0,0,0-1.45.884c-4.274,7.2-4.1,17.25-2.359,25.211a36.279,36.279,0,0,0,2.829,8.538,42.5,42.5,0,0,0,1.941,3.8c1.521,2.631,4.3,7.359,7.664,8.1.613.45,1.239.879,1.889,1.274a1.15,1.15,0,0,0,.118.056c.434,4.185.924,8.377,1.681,12.493q.244,2.114.488,4.226,3.642,31.642,7.283,63.283c2.368,20.558,5,41.1,7.072,61.693,2,19.821,2.247,40.352-7.4,58.4a1.059,1.059,0,0,0,.531,1.547,32.293,32.293,0,0,0-1.413,3.01c-1.414,3.532-2.792,7.1-3.964,10.726A220.881,220.881,0,0,0,891.628,848q-2.2,10.25-3.408,20.658c-.719,6.141-1.795,12.841-.862,19.082-9.239.1-18.486.907-27.719,1.207q-14.358.468-28.726.361c-9.575-.07-19.15-.22-28.717-.594-4.286-.167-8.738-.063-13-.589-.831-.1-2.264-.254-3.083-.435-.033-.008-.074-.021-.111-.032,8.52-11.1,14.951-23.978,21.5-36.285,3.383-6.355,6.613-12.744,9.633-19.278.3-.652.609-1.3.914-1.95,9.667-16.2,15.45-35.085,20.044-53.282a364.481,364.481,0,0,0,9.5-56.761,483.212,483.212,0,0,0,1.647-53.345c11.922-5.014,11.51-20.32,10.919-31.268-.735-13.6-2.365-27.268-8.827-39.258a8.716,8.716,0,0,0-2.005-3.412c-.314-.494-.636-.987-.971-1.473a2.48,2.48,0,0,0-1.6-1.074,12.621,12.621,0,0,0-3.676-2.309q-1.5-12.375-3.238-24.717c-.814-5.7-1.621-11.4-2.514-17.086a22.814,22.814,0,0,0,2.933.009,29.466,29.466,0,0,0,14.747-5.509c6.38-2.64,11.988-7.575,16.741-12.442q5.125-5.247,10.12-10.628c.019,1.677.146,3.354.3,4.986.468,4.948,1.2,9.872,1.848,14.8C884.982,544.659,886.019,551.936,886.979,559.22Z" transform="translate(-700.077 -189.902)" fill="#ad7e1e"/>
      <path id="Path_427" data-name="Path 427" d="M892.27,474.45c2.759,6.03,6.156,11.75,8.992,17.745l.094.2c.248.372.486.753.739,1.123,3.063,4.483,6.692,8.576,9.6,13.158,2.969,4.672,4.588,9.813,2.27,15.143-2.307,5.3-6.816,9.471-10.714,13.607q-6.315,6.7-12.632,13.4a206.269,206.269,0,0,1-17,17c-4.445,4.064-8.83,8.316-13.4,12.27a61.435,61.435,0,0,1-5.479,4.86,23.844,23.844,0,0,1-2.281.833,16.117,16.117,0,0,1-10.969,1.743c-7.5-1.533-14.319-7.547-20.2-12.137-6.743-5.264-13.147-10.95-19.552-16.614-5.388-4.765-26.714-23.849-21.383-33.069a11.268,11.268,0,0,1,2.49-6.213c3.4-4.375,8.3-7.337,12.138-11.292a51.173,51.173,0,0,0,9.558-13.844A53.58,53.58,0,0,0,808.636,480a33.953,33.953,0,0,0-1.123-7.075c-1.128-4.26-2.681-8.4-3.111-12.816-.456-4.668-.361-11.188,2.216-15.749a54.4,54.4,0,0,0-.138-5.757,52.43,52.43,0,0,0-2.361-10.934,227.857,227.857,0,0,1-9.078-45.83q-.641-6.651-1.151-13.314c-.162-2.08-.3-4.164-.469-6.245-.143-1.766.038-3.954-1.444-5.18a1.006,1.006,0,0,0-.681-.239c-.035-.547-.072-1.079-.1-1.585-.176-2.865-.276-5.736-.243-8.607.059-.892.1-1.782.1-2.687a1.408,1.408,0,0,0-.021-.191,52.513,52.513,0,0,1,2.952-15.59,34.894,34.894,0,0,1,8.34-12.909c.321.259.645.514.976.759.284.212.648-.195.474-.473-.213-.34-.436-.672-.656-1.008.49-.429.992-.841,1.509-1.224a1.254,1.254,0,0,0,.71-.5,18.958,18.958,0,0,1,3.638-1.952c.113.133.222.268.339.4,1.313,1.482,3.275.179,3.383-1.382.329-.044.663-.073,1-.094a1.63,1.63,0,0,0,1.8.978l1.542-.347c.8,1.457,3.263,1.275,3.239-.679v-.037a73.906,73.906,0,0,1,13.132-1.861,66.229,66.229,0,0,1,8.925.3c1.057.106,2.394.469,3.723.672a32.137,32.137,0,0,0-4.3,1.425c-1.008.413-.623,2.047.465,1.68a23.328,23.328,0,0,1,5.233-1.1c.011.091.018.181.029.272a.681.681,0,0,0,1.331.18c.054-.181.1-.366.148-.548,7.434-.264,15.069,2.657,20.951,6.9,8.627,6.22,13.9,15.529,16.837,25.592-2.51,20.5-.6,41.146-2.016,61.718a139.971,139.971,0,0,1-14.318,52.513,30.369,30.369,0,0,1,11.734,4.148C886.958,464.749,889.921,469.316,892.27,474.45Z" transform="translate(-701.58 -238.497)" fill="#c18b2b"/>
      <path id="Path_428" data-name="Path 428" d="M833.43,587.966a12.623,12.623,0,0,1,3.676,2.309,2.48,2.48,0,0,1,1.6,1.074c.335.486.656.979.97,1.473a8.709,8.709,0,0,1,2.005,3.412,57.351,57.351,0,0,1,2.513,5.334,136.8,136.8,0,0,1,.275-22.1c1.568-14.678,7.88-31.585,25.308-31.423a37.638,37.638,0,0,1,6.117.592q-.772-5.627-1.525-11.257c-.649-4.927-1.379-9.851-1.847-14.8-.154-1.632-.282-3.308-.3-4.986q-5.01,5.365-10.121,10.628c-4.753,4.868-10.361,9.8-16.741,12.442a29.464,29.464,0,0,1-14.746,5.509,22.818,22.818,0,0,1-2.933-.009c.893,5.684,1.7,11.386,2.514,17.087Q831.956,575.586,833.43,587.966Z" transform="translate(-690.423 -189.902)" fill="#9b691f" opacity="0.63"/>
      <path id="Path_429" data-name="Path 429" d="M812.812,839.262c12.238-21.926,27.413-42.018,37.338-65.213,9.038-21.121,13.534-43.5,14.4-66.405,1.014-26.645-1.692-53.036-5.151-79.416l-.041-.307c-1.327,5.768-4.2,10.792-10.121,13.28a483.216,483.216,0,0,1-1.647,53.345,364.464,364.464,0,0,1-9.5,56.761c-4.594,18.2-10.377,37.078-20.044,53.282-.305.65-.613,1.3-.914,1.95-3.02,6.534-6.25,12.923-9.633,19.278-6.551,12.307-12.983,25.185-21.5,36.285.037.011.078.025.111.032.819.181,2.252.333,3.083.435,4.048.5,8.272.433,12.362.569A154.2,154.2,0,0,1,812.812,839.262Z" transform="translate(-700.077 -164.342)" fill="#9b691f" opacity="0.63"/>
      <path id="Path_430" data-name="Path 430" d="M833.165,579.989c2.242-14.413,8.316-27.9,20.578-36.418a59.13,59.13,0,0,1,20.287-8.707c-.554-4.089-1.122-8.181-1.51-12.287-.154-1.632-.282-3.308-.3-4.986q-5.01,5.365-10.121,10.628c-4.753,4.868-10.361,9.8-16.741,12.442a29.464,29.464,0,0,1-14.746,5.509,22.818,22.818,0,0,1-2.933-.009c.893,5.684,1.7,11.386,2.514,17.087q1.389,9.712,2.59,19.454C832.9,581.8,833.025,580.892,833.165,579.989Z" transform="translate(-690.423 -189.902)" fill="#845715"/>
      <path id="Path_431" data-name="Path 431" d="M789.2,860.239c1.325.164,2.669.264,4.022.333,5.18-11.7,12.864-21.782,20.622-31.9a184.38,184.38,0,0,0,12.143-17.284,76.088,76.088,0,0,0,7.743-18.98c3.876-13.793,6.266-27.943,9.2-41.951,3.124-14.893,7.011-29.357,7.891-44.632.489-8.479.131-16.96-.106-25.44-.392-14.1-.9-28.341.325-42.411a16.515,16.515,0,0,1-1.8.9,483.215,483.215,0,0,1-1.647,53.345,364.458,364.458,0,0,1-9.5,56.761c-4.594,18.2-10.377,37.078-20.044,53.282-.305.65-.613,1.3-.914,1.95-3.02,6.534-6.25,12.923-9.633,19.278-6.551,12.307-12.983,25.185-21.5,36.285.037.011.078.025.111.032C786.936,859.985,788.368,860.137,789.2,860.239Z" transform="translate(-700.077 -162.013)" fill="#845715"/>
      <path id="Path_432" data-name="Path 432" d="M796.91,821.576c.712.015,1.421.032,2.126.055a123.385,123.385,0,0,1,6.285-14.549A107.279,107.279,0,0,0,796.91,821.576Z" transform="translate(-697.551 -122.836)" fill="#845715"/>
      <path id="Path_433" data-name="Path 433" d="M858.31,443.755c-.792-.174-1.588-.331-2.387-.464a139.975,139.975,0,0,0,14.318-52.513c.5-7.242.581-14.493.594-21.744-1.176,9.593-2.661,19.143-4.356,28.591-2.441,13.611-6.661,26.927-15.417,37.892a32.764,32.764,0,0,1-9.026,7.987C847.455,443.586,852.9,443.551,858.31,443.755Z" transform="translate(-687.096 -224.318)" fill="#ad7e1e"/>
      <path id="Path_434" data-name="Path 434" d="M911.7,506.569c-2.913-4.582-6.541-8.675-9.6-13.158-.252-.371-.49-.751-.739-1.123l-.094-.2c-.533-1.128-1.091-2.245-1.657-3.358-5.685,3.627-12.048,6.41-17.4,10.367-4.588,3.392-17.872,14.141-8.353,19.042,2.654,1.367,6.229,2.545,9.237,2.064,2.56-.408,4.887-1.732,7.151-2.919,5.105-2.678,10.066-4.767,15.909-3.4,1.719.4,2.272,2.1,2.064,3.636-1.658,12.234-11.135,22.5-20.281,30.028a105.062,105.062,0,0,1-31.406,18c-9.143,3.244-18.18,4.748-27.252.659-9.761-4.4-18.164-12.3-24.525-20.786-5.5-7.338-10.671-17.144-8.258-26.575a2.938,2.938,0,0,1,2.823-2.149c6.615.64,12.035,4.975,17.187,8.805a67.7,67.7,0,0,0,7.936,5.4c1.6.868,3.866,2.033,5.713,1.261,2.722-1.139,3.887-5.795,4.395-8.308a18.509,18.509,0,0,0-2.419-12.636c-4.517-8.079-12.526-14.121-20.766-18.028-1.984-.94-1.769-3.972,0-4.973,3.726-2.107,5.769-6.481,7.54-10.187,2.219-4.642,4.035-9.474,6.4-14.047,2.048-3.957,4.664-8.14,8.632-10.422.222-.127.446-.241.669-.352a44.3,44.3,0,0,1-6.177-9.874,132.248,132.248,0,0,1-8.367-24.079,255.581,255.581,0,0,1-7.26-51.878,118.826,118.826,0,0,1,3.453-36.173c2.2-8.2,5.75-16.513,11.416-22.93-2.484.342-4.939.818-7.4,1.346v.037c.023,1.953-2.442,2.136-3.239.679l-1.542.347a1.63,1.63,0,0,1-1.8-.978c-.335.021-.669.049-1,.094-.108,1.56-2.07,2.864-3.383,1.382-.117-.132-.225-.267-.339-.4a18.964,18.964,0,0,0-3.638,1.952,1.254,1.254,0,0,1-.71.5c-.517.383-1.019.8-1.509,1.224.221.335.443.668.656,1.008.174.278-.19.685-.474.473-.33-.245-.654-.5-.976-.759a34.9,34.9,0,0,0-8.34,12.909,52.515,52.515,0,0,0-2.952,15.591,1.406,1.406,0,0,1,.021.191c0,.905-.041,1.8-.1,2.688-.033,2.871.066,5.742.243,8.607.031.506.068,1.038.1,1.585a1,1,0,0,1,.681.239c1.482,1.227,1.3,3.414,1.444,5.18.169,2.08.307,4.164.469,6.245q.517,6.662,1.151,13.314a227.86,227.86,0,0,0,9.078,45.83A52.428,52.428,0,0,1,806.48,438.5a54.4,54.4,0,0,1,.138,5.757c-2.577,4.561-2.672,11.081-2.216,15.749.43,4.411,1.983,8.555,3.111,12.815a33.953,33.953,0,0,1,1.123,7.075,53.581,53.581,0,0,1-4.086,12.359,51.172,51.172,0,0,1-9.558,13.844c-3.834,3.955-8.742,6.917-12.138,11.292a11.268,11.268,0,0,0-2.49,6.212c-5.331,9.22,15.994,28.3,21.383,33.069,6.4,5.664,12.808,11.35,19.552,16.614,5.878,4.59,12.7,10.6,20.2,12.138a16.124,16.124,0,0,0,10.969-1.744,23.827,23.827,0,0,0,2.281-.833,61.434,61.434,0,0,0,5.479-4.86c4.573-3.954,8.958-8.206,13.4-12.27a206.251,206.251,0,0,0,17-17q6.317-6.7,12.632-13.4c3.9-4.136,8.407-8.3,10.714-13.607C916.288,516.382,914.669,511.241,911.7,506.569Z" transform="translate(-701.58 -238.393)" fill="#ad7e1e"/>
      <path id="Path_435" data-name="Path 435" d="M893.406,471.7c-2.86-4.5-6.4-8.526-9.431-12.912-3.114,2.253-6.328,4.369-9.533,6.487-3.945,2.608-7.942,5.173-11.7,8.049A36.716,36.716,0,0,0,859,476.532c-.174.174-.351.365-.515.546a34.235,34.235,0,0,1,6.827,1.065c2.473-.085,4.944-.292,7.413-.362a4.941,4.941,0,0,0,1.226-1.237c1.787-2.641,5.726-.893,5.525,1.608a19.267,19.267,0,0,1,2.537.584,16.157,16.157,0,0,1,5.843.285c1.719.4,2.272,2.1,2.064,3.636a29.744,29.744,0,0,1-.72,3.588,15.327,15.327,0,0,1-1.551,8.113A46.57,46.57,0,0,1,882.559,503q1.2-1.275,2.4-2.551c3.9-4.136,8.408-8.3,10.714-13.608C897.994,481.513,896.375,476.372,893.406,471.7Z" transform="translate(-683.286 -203.525)" fill="#9b691f" opacity="0.63"/>
      <path id="Path_436" data-name="Path 436" d="M857.425,573.04c-27.659,8.849-52.837-12.982-63.738-36.9-1.773-3.892-3.522-8.556-2.35-12.878a8.89,8.89,0,0,1,6.069-6.105,2.574,2.574,0,0,1,1.908-.727c.239.023.473.06.708.094q.379-.056.761-.095c6.4-.642,11.962,1.81,17.32,5.024,4.912,2.946,10.009,6.379,15.641,5.265a29.172,29.172,0,0,0,.8-3.132,16.5,16.5,0,0,0-.391-7.79c-.305-.432-.623-.861-.969-1.282-3.589-4.366-8.214-7.8-12.277-11.7a23.394,23.394,0,0,0-2.676-2.616,22.124,22.124,0,0,0-2.682-1.185,6.916,6.916,0,0,1-2.838-2.488c-1.63,1.232-4.762.233-4.653-2.237a47.671,47.671,0,0,1,2.067-11.408c2.527-10.134,6-20,6.545-30.425q0-2.7.006-5.407a3.022,3.022,0,0,1,.186-1.046c-.482-7.018-1.281-14.031-1.86-21.039-2.376-4.656-5.258-9.138-7.493-13.812-4.784-10-6.059-21.623-5.559-32.6.4-8.678,2.124-17.267,2.977-25.912.83-8.416,1.6-16.9,3.5-25.161,1.386-6.014,3.425-12.165,7.215-17.1l-.155.034a1.63,1.63,0,0,1-1.8-.978c-.335.021-.669.049-1,.094-.108,1.561-2.07,2.864-3.383,1.382-.117-.132-.225-.267-.339-.4a18.968,18.968,0,0,0-3.638,1.952,1.253,1.253,0,0,1-.71.5c-.517.383-1.019.8-1.509,1.224.221.335.443.667.656,1.007.174.278-.19.685-.474.473-.33-.245-.654-.5-.976-.759a34.893,34.893,0,0,0-8.34,12.909,52.513,52.513,0,0,0-2.952,15.59,1.409,1.409,0,0,1,.021.191c0,.905-.041,1.8-.1,2.688-.033,2.871.066,5.742.243,8.607.031.506.068,1.038.1,1.585a1,1,0,0,1,.681.239c1.482,1.227,1.3,3.414,1.444,5.18.169,2.08.307,4.164.469,6.245q.517,6.662,1.151,13.314a227.859,227.859,0,0,0,9.078,45.83,52.43,52.43,0,0,1,2.361,10.933,54.407,54.407,0,0,1,.138,5.757c-2.577,4.561-2.672,11.081-2.216,15.749.43,4.411,1.983,8.555,3.111,12.816a33.952,33.952,0,0,1,1.123,7.075,53.581,53.581,0,0,1-4.086,12.359,51.174,51.174,0,0,1-9.558,13.844c-3.834,3.955-8.742,6.917-12.138,11.292a11.268,11.268,0,0,0-2.49,6.213c-5.331,9.22,15.994,28.3,21.383,33.069,6.4,5.664,12.808,11.35,19.552,16.614,5.878,4.59,12.7,10.6,20.2,12.138a16.124,16.124,0,0,0,10.969-1.744,23.909,23.909,0,0,0,2.281-.833,61.455,61.455,0,0,0,5.479-4.86c4.573-3.954,8.958-8.206,13.4-12.27,3.021-2.763,6.11-5.64,9.136-8.642C875.32,563.706,867.3,569.881,857.425,573.04Z" transform="translate(-701.58 -238.124)" fill="#9b691f" opacity="0.63"/>
      <path id="Path_437" data-name="Path 437" d="M865.754,431.143c.171.526.355,1.048.533,1.572q-.181-.126-.366-.248C865.855,432.026,865.8,431.584,865.754,431.143Z" transform="translate(-681.602 -209.93)" fill="#2b2104"/>
      <path id="Path_438" data-name="Path 438" d="M873.333,401.071a117.638,117.638,0,0,1-3.1,19.03c-1.063,4.188-2.435,8.277-3.765,12.378a.814.814,0,0,0-.51.544c-.531,1.784-.961,3.605-1.352,5.434-.039.139-.084.277-.123.415a.667.667,0,0,0-.018.256c-.278,1.334-.541,2.672-.806,4-.176.883-.383,1.785-.589,2.692a21.39,21.39,0,0,0-6.655-1.694c4.781-5.74,7.961-13.6,10.252-20.255a117.071,117.071,0,0,0,5.487-27.121c1.189-12.585.809-25.239.835-37.871.135,2.213.251,4.427.366,6.634C873.975,377.351,874.336,389.245,873.333,401.071Z" transform="translate(-683.764 -226.67)" fill="#c18b2b"/>
      <path id="Path_439" data-name="Path 439" d="M936.682,394.448a129.511,129.511,0,0,1-18.752-4.888,82.483,82.483,0,0,1-17.265-8.265c-5.411-3.458-9.926-7.768-14.441-12.29a54.486,54.486,0,0,0-7.38-6.434,18.569,18.569,0,0,0-5.706-2.933c-.209-3.1-.473-6.238-.827-9.371a1.249,1.249,0,0,0,.8.2c6.652-.408,13-.893,19.612.447a52.944,52.944,0,0,1,18.183,7.426,50.778,50.778,0,0,1,13.648,13.272c3.607,5.026,6.73,10.393,10.52,15.29a42.083,42.083,0,0,0,8.734,8.747Q940.236,395.114,936.682,394.448Z" transform="translate(-680.083 -228.719)" fill="#efa397"/>
      <path id="Path_440" data-name="Path 440" d="M754.133,397.139c5.8-4.365,11.209-9.177,16.955-13.6,4.771-3.676,10.288-7.439,16.4-8.321a61.741,61.741,0,0,0,3.209-5.816,57.908,57.908,0,0,0,4.5-14.776c-6.519.565-12.506,3.811-17.41,8.16-5.326,4.723-9.4,10.611-13.405,16.444a160.317,160.317,0,0,1-12.41,16.323,113.642,113.642,0,0,1-10.8,10.591C745.616,403.338,749.93,400.3,754.133,397.139Z" transform="translate(-710.466 -227.657)" fill="#c9746b"/>
      <path id="Path_441" data-name="Path 441" d="M895.744,361.072a47.2,47.2,0,0,1,13.023,7.091c6.047,3.486,11.32,9.283,15.3,14.649q1.565,1.411,3.13,2.823a87.448,87.448,0,0,0,11.856,9.235c1.585.278,3.171.543,4.762.783a42.112,42.112,0,0,1-8.734-8.747c-3.79-4.9-6.912-10.263-10.52-15.291a50.792,50.792,0,0,0-13.648-13.271,52.944,52.944,0,0,0-18.183-7.426c-6.608-1.34-12.96-.855-19.612-.447a1.249,1.249,0,0,1-.8-.2c.354,3.132.617,6.268.827,9.371a16.945,16.945,0,0,1,5.094,2.514C883.021,358.6,890.327,359.214,895.744,361.072Z" transform="translate(-680.083 -228.719)" fill="#c9746b"/>
      <path id="Path_442" data-name="Path 442" d="M927.643,371.346a54.065,54.065,0,0,0-32.5-20.937c-7-1.445-15.163-1.966-22.01.491a1.368,1.368,0,0,0-.673.526c-.446-3.536-1.026-7.055-1.793-10.5.069-.691.128-1.382.208-2.072a2.552,2.552,0,0,0,.462.6.734.734,0,0,0,.871.113,4.2,4.2,0,0,0,1.7-2.988c1.814,0,3.631,0,5.436.151a69.806,69.806,0,0,1,12.675,2.168,65.957,65.957,0,0,1,22.6,11.154c13.054,9.942,21.792,24.322,28.86,38.869.963,1.983,1.831,4.036,2.723,6.076C938.337,388.779,933.7,379.474,927.643,371.346Z" transform="translate(-680.464 -231.838)" fill="#ad7e1e"/>
      <path id="Path_443" data-name="Path 443" d="M893.453,344.875a51.174,51.174,0,0,1,17.8,11.017,48.914,48.914,0,0,1,13.3,10.954,38.5,38.5,0,0,0-2.063-4.693q-.462-.84-.925-1.681l-.016-.028a60.382,60.382,0,0,0-10.125-12.671,65.943,65.943,0,0,0-19.411-8.879,69.806,69.806,0,0,0-12.675-2.168c-1.8-.149-3.621-.151-5.436-.151a4.2,4.2,0,0,1-1.7,2.988.734.734,0,0,1-.871-.113,2.578,2.578,0,0,1-.462-.6c-.08.69-.139,1.381-.208,2.072q.279,1.255.525,2.523A42.874,42.874,0,0,1,893.453,344.875Z" transform="translate(-680.464 -231.838)" fill="#845715"/>
      <path id="Path_444" data-name="Path 444" d="M873.53,346.993c2.318.006,4.657.028,7,.1a45.569,45.569,0,0,1,7.7.147,39.841,39.841,0,0,0-14.779-.774A2.9,2.9,0,0,1,873.53,346.993Z" transform="translate(-679.819 -229.627)" fill="#845715"/>
      <path id="Path_445" data-name="Path 445" d="M825.474,352.783a1.79,1.79,0,0,0-.922-.323,12.594,12.594,0,0,0-11.964-1.871,15.065,15.065,0,0,0-6.4,4.76.508.508,0,0,0-.649-.326c-3.839,1.433-7.255-1.479-8.09-5.1a.293.293,0,0,0-.562,0c-.919,4.6,4.747,7.716,8.639,6.3a20.845,20.845,0,0,0-2.181,3.973,10.675,10.675,0,0,1-3.957.874c-2.567.057-4.427-1.017-6.682-2.005-.277-.121-.7.159-.474.474,2.328,3.2,6.953,3.5,10.58,2.04a25.558,25.558,0,0,0-.948,3.532,8.383,8.383,0,0,1-3.592,1.783c-2.974.682-5.93-.195-8.907-.28-.394-.011-.422.527-.089.652,3.62,1.338,8.511,1.791,11.979-.266.118-.07.232-.147.346-.222a25.853,25.853,0,0,0-.2,4.238c.3,7.974,4.682,16.406,13.047,18.174a14.484,14.484,0,0,0,10.525-1.553c3.821-2.368,5.386-6.493,6.124-10.746C832.5,368.74,833.315,358.01,825.474,352.783Z" transform="translate(-699.374 -228.795)" fill="#2b2104"/>
      <path id="Path_446" data-name="Path 446" d="M807.3,360.584a.642.642,0,0,0-.1-.214c-.67-.936-1.2-2.884-.021-3.723,1.638-1.16,3.343,1.817,2.167,3.12A2.527,2.527,0,0,1,807.3,360.584Z" transform="translate(-695.333 -227.249)" fill="#2b2104"/>
      <path id="Path_447" data-name="Path 447" d="M824.967,371.589c-.359,3.361-.732,7.448-2.813,10.24a9.212,9.212,0,0,1-7.412,3.36c-11.814.062-15.058-14.11-11.383-23.87,1.774,3.748,7.439,4.494,9.839.818,1.9-2.918-.217-7.115-3.3-7.827a.441.441,0,0,0-.106-.7c-.034-.016-.068-.028-.1-.044a10.959,10.959,0,0,1,10.091.173,1.871,1.871,0,0,0,.828,1.645C825.661,358.945,825.555,366.079,824.967,371.589Z" transform="translate(-696.389 -228.168)" fill="#fff"/>
      <path id="Path_448" data-name="Path 448" d="M875.1,350.058a.353.353,0,0,0-.69.094c-.4,3.672-2.723,7.055-6.22,7.756a16.406,16.406,0,0,0-9.566-7.99c-2.849-.893-6.78-1.149-9.469.5a8.625,8.625,0,0,0-4.09,1.148c-3.428,2.022-4.849,6.136-5.241,9.893a28.683,28.683,0,0,0,9.219,23.815c2.935,2.561,6.679,4.241,10.616,3.3,3.428-.814,6.1-3.516,7.844-6.458a26.174,26.174,0,0,0,1.175-23.2C872.7,358.089,876.517,354.24,875.1,350.058Z" transform="translate(-687.64 -228.91)" fill="#2b2104"/>
      <path id="Path_449" data-name="Path 449" d="M846.226,354.708a3.218,3.218,0,0,0,1.08,2.024.813.813,0,0,0,1.37-.568c.184-1.591,2.412-3.849,3.982-2.435,1.425,1.282.5,3.94-.863,4.855a4.729,4.729,0,0,1-3.7.457c-.8-.191-2.564-.792-2.872-1.673C844.941,356.557,845.647,355.394,846.226,354.708Z" transform="translate(-686.373 -227.967)" fill="#2b2104"/>
      <path id="Path_450" data-name="Path 450" d="M865.5,375.55c-1.578,5.163-6.12,11.106-12.112,8.066-5.679-2.88-9.175-10.066-10.37-16.026a21.717,21.717,0,0,1-.058-9.282,4.523,4.523,0,0,0,.164.6c.7,1.99,3.943,3.231,5.831,3.529a7.159,7.159,0,0,0,6.219-1.84,7.05,7.05,0,0,0,1.074-8.154,12.565,12.565,0,0,1,7.1,4.717C867.076,362.268,867.3,369.673,865.5,375.55Z" transform="translate(-686.992 -228.162)" fill="#fff"/>
      <path id="Path_451" data-name="Path 451" d="M820.453,326.523c-6.332-2.712-13.58-.452-18.912,3.572-4.743,3.579-10.38,10.586-8.242,16.992a.868.868,0,0,0,1.566.2c1.2-2.4,1.925-4.974,3.228-7.336a21.276,21.276,0,0,1,5.628-6.625c4.691-3.626,10.315-4.638,16.111-4.514C820.978,328.841,821.612,327.018,820.453,326.523Z" transform="translate(-698.495 -234.441)" fill="#2b2104"/>
      <path id="Path_452" data-name="Path 452" d="M866.387,330.673c-1.341-3.372-4.555-5.22-8.021-5.761-4.01-.626-8.254.158-12.19.951a35.825,35.825,0,0,0-12.686,4.825.5.5,0,0,0,.383.91c6.548-1.1,13.057-3.026,19.74-3.313,2.817-.121,6.136.018,8.3,2.078a6.087,6.087,0,0,1,1.493,6.693c-.266.638.634,1.289,1.179.906A6.021,6.021,0,0,0,866.387,330.673Z" transform="translate(-689.132 -234.592)" fill="#2b2104"/>
      <path id="Path_453" data-name="Path 453" d="M821.253,471.469a22.716,22.716,0,0,0-16.831-9.589,2.749,2.749,0,0,0-2.643,2.014c-1.081,5.634-2.155,12.147,1.083,17.317,2.2,3.516,7.306,6.814,11.315,4.27a1.365,1.365,0,0,0-.321-2.46c-3.108-1.272-5.546-2.654-6.865-5.945-1.174-2.925-.841-6.264-.328-9.4,9.085,1.99,16.619,12.6,14.842,21.881a1.206,1.206,0,0,0,2.324.64C826.023,483.6,825.453,477.266,821.253,471.469Z" transform="translate(-696.672 -202.81)" fill="#2b2104"/>
      <path id="Path_454" data-name="Path 454" d="M875.111,457.966c-4.967-4.93-12.354.84-15.51,4.934a22.238,22.238,0,0,0-3.928,19.154,1.352,1.352,0,0,0,2.643-.357,22.659,22.659,0,0,1,3.937-14.33c1.492-2.1,9.172-9.63,9.408-3.55.17,4.386-1.764,9.07-4.109,12.671-2.648,4.067-6.381,6.73-9.5,10.326-.632.729-.275,2.181.867,2.091,6.548-.512,11.921-6.6,14.733-12.092C876.05,472.134,879.6,462.421,875.111,457.966Z" transform="translate(-684.106 -204.155)" fill="#2b2104"/>
      <path id="Path_455" data-name="Path 455" d="M884.124,713.416a61.571,61.571,0,0,0-4.1-10.752,42.959,42.959,0,0,0-2.305-4.279c.767-4.225-3.69-7.241-7.715-6.847-5.79.565-11.218,5.867-14.907,9.976-8.328,9.279-13.667,22.5-11.432,35.056,2,11.251,12.046,21.305,24.083,19.809,11.107-1.382,16.83-12.256,18.152-22.346A52.747,52.747,0,0,0,884.124,713.416Z" transform="translate(-686.838 -149.613)" fill="#473313"/>
      <path id="Path_456" data-name="Path 456" d="M873.368,746.146c-6.441,6.591-16.668,3.983-21.756-2.967-5.9-8.066-4.48-19.693-.756-28.348a45.436,45.436,0,0,1,8.479-13.019,39.31,39.31,0,0,1,6.583-5.8,10.679,10.679,0,0,1,4.068-1.548,2.151,2.151,0,0,0-.115,1.075c.643,4.55,4.264,8.767,5.921,13.052a54.346,54.346,0,0,1,3.52,14.972C879.959,731.247,879.037,740.345,873.368,746.146Z" transform="translate(-685.803 -148.927)" fill="#543e16"/>
      <path id="Path_457" data-name="Path 457" d="M861.95,323.537a41.775,41.775,0,0,0-17.089-11.257,34.875,34.875,0,0,0-10.324-2.02c-3.571-.092-6.653.83-10.085,1.685a.277.277,0,0,0,.074.542,46.889,46.889,0,0,1,9.537,1.278A57.674,57.674,0,0,1,842.794,316a40.564,40.564,0,0,1,15.873,10.112,38.956,38.956,0,0,1,9,15.991c1.772,6.181,1.628,12.519,2.25,18.848.038.388.58.624.8.216C877.008,349.246,870.293,332.7,861.95,323.537Z" transform="translate(-691.216 -237.936)" fill="#fff" opacity="0.22"/>
      <path id="Path_458" data-name="Path 458" d="M862.8,386.546c-.276-.936-1.92-1.116-2.082,0-.739,5.089-.888,10.132-2.221,15.148a71.612,71.612,0,0,1-6.151,15.351,110.26,110.26,0,0,1-8.672,13.451c-2.842,3.835-7.7,8.07-8.691,12.9a1.066,1.066,0,0,0,1.3,1.3c4.861-1.387,8.39-6.864,11.3-10.675a91.611,91.611,0,0,0,9.6-15.363C861.729,409.387,865.861,396.891,862.8,386.546Z" transform="translate(-688.735 -220.44)" fill="#fff" opacity="0.22"/>
      <path id="Path_459" data-name="Path 459" d="M879.079,455.165c-1.812-1.919-4.982-2.275-7.438-2.6a22.363,22.363,0,0,0-10.171.729c-5.73,1.973-9.558,6.83-11.415,12.463-1.966,5.956-2.54,15.115.857,20.611a.814.814,0,0,0,1.468-.192c1.595-5.14-.249-10.734.669-16.062.777-4.509,2.811-9.194,6.721-11.836,3.986-2.692,9.921-3,14.461-1.616,3.784,1.151,3.07,4.361,2.925,7.549-.144,3.16.4,6.406-.208,9.524a.252.252,0,0,0,.485.133c1.322-3.784,3.005-6.783,3.223-10.874C880.794,460.428,881,457.2,879.079,455.165Z" transform="translate(-685.606 -205.026)" fill="#fff" opacity="0.22"/>
      <path id="Path_460" data-name="Path 460" d="M823.26,472.484c-3.851-6.875-10.553-13.551-18.683-14.456-1.281-.143-1.648,1.76-.633,2.339,6.468,3.689,12.2,7.4,15.98,14.068a30.5,30.5,0,0,1,3.565,10.2c.573,3.573.192,7.158.634,10.728a.761.761,0,0,0,1.4.381C829.964,489.1,826.812,478.824,823.26,472.484Z" transform="translate(-696.056 -203.703)" fill="#fff" opacity="0.22"/>
      <path id="Path_461" data-name="Path 461" d="M900.078,478.3c-4.406.5-8.294,3.184-12,5.476-1.192.737-2.346,1.476-3.477,2.229a29.757,29.757,0,0,1-4.172,1.427c-3.343.805-6.709,1.791-9.985,2.846-7.006,2.256-13.72,4.935-20.985,6.344a70.267,70.267,0,0,1-20.953.905c-7.135-.775-14.295-2.562-21.345-3.86a3.15,3.15,0,0,0-1.233.033c-.11-.163-.228-.318-.335-.482a2.327,2.327,0,0,0-4.015,2.346c4.481,8.9,10.633,17.715,19.837,22.256,10.054,4.961,22.052,5.687,32.834,2.86a47.454,47.454,0,0,0,14.9-6.891c4.137-2.861,7.622-6.66,11.141-10.231,3.41-3.461,7.148-6.634,10.311-10.326a29.89,29.89,0,0,1,5.519-5.161c2.075-1.456,4.35-2.522,6.257-4.218C904.363,482.085,902.891,477.978,900.078,478.3Z" transform="translate(-696.535 -199.01)" fill="#fff" opacity="0.22"/>
      <path id="Path_462" data-name="Path 462" d="M767.161,361.29a138.827,138.827,0,0,0-21.73,23.479c-1.814,2.468,2.3,4.828,4.1,2.4a144.644,144.644,0,0,1,20.882-22.624C772.65,362.579,769.4,359.381,767.161,361.29Z" transform="translate(-709.581 -226.248)" fill="#fff" opacity="0.22"/>
      <path id="Path_463" data-name="Path 463" d="M888.087,689.564c-1.522-22.982-3.559-45.982-7-68.761q-2.825-18.677-5.97-37.311c-2.116-12.636-3.865-26.058-8.323-38.11-.955-2.58-5.028-2.362-5.011.677.062,11.154,2.249,22.522,3.774,33.562,1.556,11.262,2.93,22.537,3.991,33.857,2.119,22.609,4.187,45.234,5.713,67.892,1.517,22.52,3.087,45.279,2.478,67.859a140.25,140.25,0,0,1-4.228,31.887,279.6,279.6,0,0,1-9.485,28.125c-3.882,10.256-7.934,20.47-11,31.008a130.088,130.088,0,0,0-3.715,16.306c-.936,6.013-1.584,11.813.324,17.689a5.209,5.209,0,0,0,9.956,0c1.509-4.62,1.851-9.349,2.57-14.147a123.377,123.377,0,0,1,3.089-14.228c2.6-9.507,6.081-18.745,9.562-27.957,3.568-9.44,7.131-18.884,9.822-28.621a158.034,158.034,0,0,0,5.162-31.974C891.245,734.847,889.571,711.995,888.087,689.564Z" transform="translate(-685.622 -183.877)" fill="#fff" opacity="0.22"/>
      <path id="Path_464" data-name="Path 464" d="M820.031,344.018a16.308,16.308,0,0,0-16.49,3.186,3.56,3.56,0,0,0-.926,3.5,3.075,3.075,0,0,0,1.371,2.006c2.261,1.156,3.541.214,5.6-.711a10.374,10.374,0,0,1,5.749-1.01c3.508.484,7.366,3.739,9.2,6.669,1.253,2,4.97,1.37,4.753-1.287C828.8,350.4,825.776,346.138,820.031,344.018Z" transform="translate(-696.261 -230.342)" fill="#ad7e1e"/>
      <path id="Path_465" data-name="Path 465" d="M868.938,351.608c-5.542-11.1-22.614-7.213-29.365.6-1.875,2.168,1.161,5.3,3.181,3.181,2.934-3.078,7.1-5.119,11.38-4.163a57.966,57.966,0,0,1,11.212,3.978A2.65,2.65,0,0,0,868.938,351.608Z" transform="translate(-687.803 -229.951)" fill="#ad7e1e"/>
      <path id="Path_466" data-name="Path 466" d="M863.636,343.658a.4.4,0,0,0-.756,0c-.856,2.649-1.341,4.85-3.63,6.721a9.73,9.73,0,0,1-7.332,2.149c-.483-.054-.541.685-.111.819a8.99,8.99,0,0,0,8.442-1.831C862.377,349.781,864.548,346.52,863.636,343.658Z" transform="translate(-684.9 -230.261)" fill="#2b2104"/>
      <path id="Path_467" data-name="Path 467" d="M868.208,345.121c-1.384,2.626-1.66,5.71-3.781,7.96-1.829,1.941-5.741,3.046-7.959.983-.166-.154-.483.057-.332.256.941,1.234,1.4,1.907,3.115,2.185a7.135,7.135,0,0,0,4.714-.98c3.247-1.939,5.073-6.541,5-10.2A.409.409,0,0,0,868.208,345.121Z" transform="translate(-683.839 -229.904)" fill="#2b2104"/>
      <path id="Path_468" data-name="Path 468" d="M829.978,580.816a1.088,1.088,0,0,0-1.52,0l-.592.692a1,1,0,0,0,1.42,1.42l.692-.592A1.079,1.079,0,0,0,829.978,580.816Z" transform="translate(-690.445 -175.327)" fill="#473313"/>
      <path id="Path_469" data-name="Path 469" d="M832.953,605.805a1.293,1.293,0,0,0-1.569-.892l-1.259.419a1.194,1.194,0,0,0-.82,1.445,1.209,1.209,0,0,0,1.445.821l1.313-.225A1.28,1.28,0,0,0,832.953,605.805Z" transform="translate(-690.058 -169.685)" fill="#473313"/>
      <path id="Path_470" data-name="Path 470" d="M835.3,643.423a1.277,1.277,0,0,0-1.531-.87,9.781,9.781,0,0,0-4.627,1.653.893.893,0,0,0,.685,1.624c1.548-.208,3.057-.65,4.6-.876A1.254,1.254,0,0,0,835.3,643.423Z" transform="translate(-690.18 -160.957)" fill="#473313"/>
      <path id="Path_471" data-name="Path 471" d="M833.38,650.162c-1.289.453-2.906.8-3.949,1.712a1.065,1.065,0,0,0,.745,1.8c1.383-.032,2.827-.9,4.078-1.438C835.428,651.734,834.59,649.737,833.38,650.162Z" transform="translate(-690.089 -159.204)" fill="#473313"/>
      <path id="Path_472" data-name="Path 472" d="M833.031,671.247l-.989-.229a1.165,1.165,0,0,0-1.363.669,1.142,1.142,0,0,0,.473,1.443l.916.4a1.25,1.25,0,1,0,.963-2.286Z" transform="translate(-689.748 -154.366)" fill="#473313"/>
      <path id="Path_473" data-name="Path 473" d="M832.361,674.49a3.734,3.734,0,0,1-1.508.262,1.376,1.376,0,0,0-1.084.314,1.1,1.1,0,0,0,.485,1.84,4.765,4.765,0,0,0,2.922-.479C834.25,675.925,833.48,674.045,832.361,674.49Z" transform="translate(-690.013 -153.57)" fill="#473313"/>
      <path id="Path_474" data-name="Path 474" d="M826.7,718.234c-1.287.24-2.572.273-3.865.413a1.03,1.03,0,0,0-.273,2.013,9.368,9.368,0,0,0,4.766-.149C828.819,720.118,828.178,717.96,826.7,718.234Z" transform="translate(-691.778 -143.426)" fill="#473313"/>
      <path id="Path_475" data-name="Path 475" d="M822.76,734.664a8.015,8.015,0,0,1-3.388-1.014c-.776-.336-1.718.382-1.229,1.229a4.663,4.663,0,0,0,4.618,1.934C824.093,736.653,824.182,734.642,822.76,734.664Z" transform="translate(-692.663 -139.868)" fill="#473313"/>
      <path id="Path_476" data-name="Path 476" d="M816.918,751.606a7.319,7.319,0,0,0-3.2-1.2.992.992,0,0,0-.85,1.48,6.951,6.951,0,0,0,2.78,1.888,1.283,1.283,0,0,0,1.717-.451A1.266,1.266,0,0,0,816.918,751.606Z" transform="translate(-693.888 -135.967)" fill="#473313"/>
      <path id="Path_477" data-name="Path 477" d="M814.265,763.734c-1.953-1.184-4.813-2.412-7.065-1.415a.994.994,0,0,0,0,1.708,12.779,12.779,0,0,0,3.065.694,21.862,21.862,0,0,1,3.195.922C814.592,766.08,815.246,764.329,814.265,763.734Z" transform="translate(-695.279 -133.292)" fill="#473313"/>
      <path id="Path_478" data-name="Path 478" d="M808.474,770.362a11.3,11.3,0,0,0-5.993-.235.942.942,0,0,0,0,1.8,27.42,27.42,0,0,0,5.7.595C809.422,772.619,809.669,770.649,808.474,770.362Z" transform="translate(-696.414 -131.472)" fill="#473313"/>
      <path id="Path_479" data-name="Path 479" d="M799.006,788.328a9.485,9.485,0,0,0-5.635,1,.926.926,0,0,0,.464,1.712,26.755,26.755,0,0,0,5.456-.6C800.563,790.248,800.131,788.419,799.006,788.328Z" transform="translate(-698.473 -127.193)" fill="#473313"/>
      <path id="Path_480" data-name="Path 480" d="M793.427,799.421a8.406,8.406,0,0,0-3.478.14,1.006,1.006,0,0,0,0,1.918,8.406,8.406,0,0,0,3.478.142A1.1,1.1,0,0,0,793.427,799.421Z" transform="translate(-699.326 -124.638)" fill="#473313"/>
      <path id="Path_481" data-name="Path 481" d="M791.884,802.063a10.751,10.751,0,0,1-1.715.264,7.315,7.315,0,0,0-1.775.191.931.931,0,0,0-.219,1.679c1.2.786,3.031.457,4.312.056A1.136,1.136,0,0,0,791.884,802.063Z" transform="translate(-699.675 -124.008)" fill="#473313"/>
      <path id="Path_482" data-name="Path 482" d="M791,806.487a1.206,1.206,0,0,0-1.615-.422,7.647,7.647,0,0,0-2.977,1.894,1.041,1.041,0,0,0,.893,1.557,7.922,7.922,0,0,0,3.276-1.414A1.2,1.2,0,0,0,791,806.487Z" transform="translate(-700.023 -123.106)" fill="#473313"/>
      <path id="Path_483" data-name="Path 483" d="M785.991,816.929c-.645.988-1.691,2.117-1.726,3.348a.913.913,0,0,0,1.361.781c1.059-.578,1.6-2.065,2.178-3.069A1.051,1.051,0,0,0,785.991,816.929Z" transform="translate(-700.48 -120.669)" fill="#473313"/>
    </g>
  </g>
</svg>
